%!PS-Adobe-3.0 EPSF-3.0
%%Creator: cairo 1.16.0 (https://cairographics.org)
%%CreationDate: Mon Jan 27 23:34:01 2020
%%Pages: 1
%%DocumentData: Clean7Bit
%%LanguageLevel: 2
%%BoundingBox: 0 0 459 459
%%EndComments
%%BeginProlog
50 dict begin
/q { gsave } bind def
/Q { grestore } bind def
/cm { 6 array astore concat } bind def
/w { setlinewidth } bind def
/J { setlinecap } bind def
/j { setlinejoin } bind def
/M { setmiterlimit } bind def
/d { setdash } bind def
/m { moveto } bind def
/l { lineto } bind def
/c { curveto } bind def
/h { closepath } bind def
/re { exch dup neg 3 1 roll 5 3 roll moveto 0 rlineto
      0 exch rlineto 0 rlineto closepath } bind def
/S { stroke } bind def
/f { fill } bind def
/f* { eofill } bind def
/n { newpath } bind def
/W { clip } bind def
/W* { eoclip } bind def
/BT { } bind def
/ET { } bind def
/BDC { mark 3 1 roll /BDC pdfmark } bind def
/EMC { mark /EMC pdfmark } bind def
/cairo_store_point { /cairo_point_y exch def /cairo_point_x exch def } def
/Tj { show currentpoint cairo_store_point } bind def
/TJ {
  {
    dup
    type /stringtype eq
    { show } { -0.001 mul 0 cairo_font_matrix dtransform rmoveto } ifelse
  } forall
  currentpoint cairo_store_point
} bind def
/cairo_selectfont { cairo_font_matrix aload pop pop pop 0 0 6 array astore
    cairo_font exch selectfont cairo_point_x cairo_point_y moveto } bind def
/Tf { pop /cairo_font exch def /cairo_font_matrix where
      { pop cairo_selectfont } if } bind def
/Td { matrix translate cairo_font_matrix matrix concatmatrix dup
      /cairo_font_matrix exch def dup 4 get exch 5 get cairo_store_point
      /cairo_font where { pop cairo_selectfont } if } bind def
/Tm { 2 copy 8 2 roll 6 array astore /cairo_font_matrix exch def
      cairo_store_point /cairo_font where { pop cairo_selectfont } if } bind def
/g { setgray } bind def
/rg { setrgbcolor } bind def
/d1 { setcachedevice } bind def
/cairo_data_source {
  CairoDataIndex CairoData length lt
    { CairoData CairoDataIndex get /CairoDataIndex CairoDataIndex 1 add def }
    { () } ifelse
} def
/cairo_flush_ascii85_file { cairo_ascii85_file status { cairo_ascii85_file flushfile } if } def
/cairo_image { image cairo_flush_ascii85_file } def
/cairo_imagemask { imagemask cairo_flush_ascii85_file } def
%%EndProlog
%%BeginSetup
%%EndSetup
%%Page: 1 1
%%BeginPageSetup
%%PageBoundingBox: 0 0 459 459
%%EndPageSetup
q 0 0 459 459 rectclip
1 0 0 -1 0 459 cm q
0.337255 0.239216 0.486275 rg
459 382.5 m 459 424.574 424.574 459 382.5 459 c 76.5 459 l 34.426 459 0
 424.574 0 382.5 c 0 76.5 l 0 34.426 34.426 0 76.5 0 c 382.5 0 l 424.574
 0 459 34.426 459 76.5 c h
459 382.5 m f
1 g
124.727 99.75 m 254.852 99.75 l 278.852 99.75 298.125 105.227 312.602 116.25
 c 327.074 127.273 334.352 143.852 334.352 166.125 c 334.352 179.625 331.051
 191.176 324.449 200.773 c 317.852 210.375 308.398 217.875 296.102 223.125
 c 296.102 223.875 l 312.602 227.398 325.125 235.199 333.602 247.273 c 342.074
 259.426 346.352 274.574 346.352 292.875 c 346.352 303.375 344.477 313.199
 340.727 322.273 c 336.977 331.426 331.125 339.301 323.102 345.898 c 315.074
 352.5 304.875 357.75 292.352 361.648 c 279.824 365.551 264.977 367.5 247.727
 367.5 c 124.727 367.5 l h
171.602 211.875 m 248.102 211.875 l 259.352 211.875 268.727 208.727 276.227
 202.273 c 283.727 195.824 287.477 186.676 287.477 174.676 c 287.477 161.176
 284.102 151.648 277.352 146.176 c 270.602 140.699 260.852 137.926 248.102
 137.926 c 171.602 137.926 l h
171.602 329.25 m 254.477 329.25 l 268.727 329.25 279.824 325.574 287.625
 318.148 c 295.5 310.801 299.477 300.301 299.477 286.801 c 299.477 273.523
 295.574 263.398 287.625 256.199 c 279.676 249 268.727 245.551 254.477 245.551
 c 171.602 245.551 l h
171.602 329.25 m f
Q Q
showpage
%%Trailer
end
%%EOF
