%!PS-Adobe-3.0 EPSF-3.0
%%Creator: cairo 1.16.0 (https://cairographics.org)
%%CreationDate: Tue Jan 28 11:44:58 2020
%%Pages: 1
%%DocumentData: Clean7Bit
%%LanguageLevel: 2
%%BoundingBox: 0 0 379 162
%%EndComments
%%BeginProlog
50 dict begin
/q { gsave } bind def
/Q { grestore } bind def
/cm { 6 array astore concat } bind def
/w { setlinewidth } bind def
/J { setlinecap } bind def
/j { setlinejoin } bind def
/M { setmiterlimit } bind def
/d { setdash } bind def
/m { moveto } bind def
/l { lineto } bind def
/c { curveto } bind def
/h { closepath } bind def
/re { exch dup neg 3 1 roll 5 3 roll moveto 0 rlineto
      0 exch rlineto 0 rlineto closepath } bind def
/S { stroke } bind def
/f { fill } bind def
/f* { eofill } bind def
/n { newpath } bind def
/W { clip } bind def
/W* { eoclip } bind def
/BT { } bind def
/ET { } bind def
/BDC { mark 3 1 roll /BDC pdfmark } bind def
/EMC { mark /EMC pdfmark } bind def
/cairo_store_point { /cairo_point_y exch def /cairo_point_x exch def } def
/Tj { show currentpoint cairo_store_point } bind def
/TJ {
  {
    dup
    type /stringtype eq
    { show } { -0.001 mul 0 cairo_font_matrix dtransform rmoveto } ifelse
  } forall
  currentpoint cairo_store_point
} bind def
/cairo_selectfont { cairo_font_matrix aload pop pop pop 0 0 6 array astore
    cairo_font exch selectfont cairo_point_x cairo_point_y moveto } bind def
/Tf { pop /cairo_font exch def /cairo_font_matrix where
      { pop cairo_selectfont } if } bind def
/Td { matrix translate cairo_font_matrix matrix concatmatrix dup
      /cairo_font_matrix exch def dup 4 get exch 5 get cairo_store_point
      /cairo_font where { pop cairo_selectfont } if } bind def
/Tm { 2 copy 8 2 roll 6 array astore /cairo_font_matrix exch def
      cairo_store_point /cairo_font where { pop cairo_selectfont } if } bind def
/g { setgray } bind def
/rg { setrgbcolor } bind def
/d1 { setcachedevice } bind def
/cairo_data_source {
  CairoDataIndex CairoData length lt
    { CairoData CairoDataIndex get /CairoDataIndex CairoDataIndex 1 add def }
    { () } ifelse
} def
/cairo_flush_ascii85_file { cairo_ascii85_file status { cairo_ascii85_file flushfile } if } def
/cairo_image { image cairo_flush_ascii85_file } def
/cairo_imagemask { imagemask cairo_flush_ascii85_file } def
%%EndProlog
%%BeginSetup
%%EndSetup
%%Page: 1 1
%%BeginPageSetup
%%PageBoundingBox: 0 0 379 162
%%EndPageSetup
q 0 0 379 162 rectclip
1 0 0 -1 0 162 cm q
0.0352941 0.180392 0.12549 rg
378.066 140.996 m 378.066 152.594 368.664 161.996 357.066 161.996 c 21 
161.996 l 9.402 161.996 0 152.594 0 140.996 c 0 21 l 0 9.402 9.402 0 21 
0 c 357.066 0 l 368.664 0 378.066 9.402 378.066 21 c h
378.066 140.996 m f
1 g
65.207 25.438 m 83.113 25.438 l 83.113 108.312 l 73.93 110.055 67.184 110.754
 59.859 110.754 c 38.004 110.754 26.613 100.871 26.613 81.922 c 26.613 63.668
 38.703 51.809 57.422 51.809 c 60.328 51.809 62.535 52.043 65.211 52.738
 c 65.211 25.438 l h
65.207 67.152 m 63.117 66.457 61.371 66.227 59.164 66.227 c 50.094 66.227
 44.863 71.805 44.863 81.57 c 44.863 91.105 49.863 96.336 59.047 96.336 
c 61.023 96.336 62.652 96.219 65.207 95.871 c h
65.207 67.152 m f
111.594 53.086 m 111.594 94.594 l 111.594 108.891 110.547 115.75 107.41
 121.68 c 104.504 127.379 100.664 130.98 92.762 134.934 c 76.137 127.027
 l 84.043 123.309 87.879 120.055 90.32 115.055 c 92.879 109.938 93.691 104.008
 93.691 88.43 c 93.691 53.086 l h
93.691 25.535 m 111.594 25.535 l 111.594 43.902 l 93.691 43.902 l h
93.691 25.535 m f
122.41 57.156 m 130.316 53.438 137.871 51.809 146.125 51.809 c 155.312 
51.809 161.355 54.25 164.031 59.016 c 165.539 61.691 166.004 65.18 166.004
 72.621 c 166.004 109.008 l 157.984 110.172 147.871 110.984 140.43 110.984
 c 125.434 110.984 118.688 105.754 118.688 94.129 c 118.688 81.57 127.641
 75.758 149.613 73.898 c 149.613 69.945 l 149.613 66.688 147.984 65.527 
143.453 65.527 c 136.824 65.527 129.383 67.387 122.41 70.992 c h
150.426 85.641 m 138.57 86.805 134.73 88.664 134.73 93.312 c 134.73 96.801
 136.941 98.43 141.824 98.43 c 144.5 98.43 146.938 98.195 150.426 97.617
 c h
150.426 85.641 m f
174.727 55.879 m 185.305 53.086 194.023 51.809 202.859 51.809 c 212.043
 51.809 218.672 53.898 222.625 57.973 c 226.344 61.805 227.508 65.992 227.508
 74.945 c 227.508 110.055 l 209.605 110.055 l 209.605 75.641 l 209.605 68.785
 207.277 66.223 200.887 66.223 c 198.445 66.223 196.234 66.457 192.629 67.504
 c 192.629 110.055 l 174.727 110.055 l h
174.727 55.879 m f
234.469 119.82 m 240.746 123.074 247.023 124.586 253.648 124.586 c 265.391
 124.586 270.391 119.82 270.391 108.426 c 270.391 108.312 270.391 108.195
 270.391 108.078 c 266.902 109.82 263.414 110.52 258.766 110.52 c 243.07
 110.52 233.07 100.172 233.07 83.781 c 233.07 63.434 247.836 51.926 273.992
 51.926 c 281.668 51.926 288.758 52.738 297.363 54.48 c 291.234 67.398 l
 286.465 66.465 290.852 67.273 287.25 66.922 c 287.25 68.785 l 287.48 76.34
 l 287.598 86.105 l 287.711 88.547 287.711 90.988 287.828 93.43 c 287.828
 95.637 287.828 96.684 287.828 98.312 c 287.828 113.66 286.551 120.867 282.715
 126.797 c 277.133 135.516 267.484 139.816 253.766 139.816 c 246.789 139.816
 240.746 138.77 234.465 136.328 c 234.465 119.82 l h
270.043 66.34 m 269.809 66.34 269.578 66.34 269.461 66.34 c 268.184 66.34
 l 264.695 66.227 260.629 67.152 257.836 68.898 c 253.535 71.34 251.324 
75.758 251.324 82.035 c 251.324 90.988 255.742 96.102 263.648 96.102 c 266.09
 96.102 268.066 95.637 270.391 94.941 c 270.391 88.781 l 270.391 86.688 
270.277 84.359 270.277 81.922 c 270.16 73.664 l 270.043 67.738 l h
270.043 66.34 m f
325.156 51.578 m 343.059 51.578 353.988 62.855 353.988 81.105 c 353.988
 99.824 342.598 111.566 324.461 111.566 c 306.555 111.566 295.512 100.289
 295.512 82.152 c 295.512 63.316 306.906 51.578 325.156 51.578 c h
324.809 97.148 m 331.668 97.148 335.738 91.453 335.738 81.57 c 335.738 
71.805 331.785 65.992 324.926 65.992 c 317.832 65.992 313.762 71.691 313.762
 81.57 c 313.762 91.453 317.832 97.148 324.809 97.148 c h
324.809 97.148 m f
Q Q
showpage
%%Trailer
end
%%EOF
