%!PS-Adobe-3.0 EPSF-3.0
%%Creator: cairo 1.16.0 (https://cairographics.org)
%%CreationDate: Mon Jan 27 23:10:38 2020
%%Pages: 1
%%DocumentData: Clean7Bit
%%LanguageLevel: 2
%%BoundingBox: 0 0 511 584
%%EndComments
%%BeginProlog
50 dict begin
/q { gsave } bind def
/Q { grestore } bind def
/cm { 6 array astore concat } bind def
/w { setlinewidth } bind def
/J { setlinecap } bind def
/j { setlinejoin } bind def
/M { setmiterlimit } bind def
/d { setdash } bind def
/m { moveto } bind def
/l { lineto } bind def
/c { curveto } bind def
/h { closepath } bind def
/re { exch dup neg 3 1 roll 5 3 roll moveto 0 rlineto
      0 exch rlineto 0 rlineto closepath } bind def
/S { stroke } bind def
/f { fill } bind def
/f* { eofill } bind def
/n { newpath } bind def
/W { clip } bind def
/W* { eoclip } bind def
/BT { } bind def
/ET { } bind def
/BDC { mark 3 1 roll /BDC pdfmark } bind def
/EMC { mark /EMC pdfmark } bind def
/cairo_store_point { /cairo_point_y exch def /cairo_point_x exch def } def
/Tj { show currentpoint cairo_store_point } bind def
/TJ {
  {
    dup
    type /stringtype eq
    { show } { -0.001 mul 0 cairo_font_matrix dtransform rmoveto } ifelse
  } forall
  currentpoint cairo_store_point
} bind def
/cairo_selectfont { cairo_font_matrix aload pop pop pop 0 0 6 array astore
    cairo_font exch selectfont cairo_point_x cairo_point_y moveto } bind def
/Tf { pop /cairo_font exch def /cairo_font_matrix where
      { pop cairo_selectfont } if } bind def
/Td { matrix translate cairo_font_matrix matrix concatmatrix dup
      /cairo_font_matrix exch def dup 4 get exch 5 get cairo_store_point
      /cairo_font where { pop cairo_selectfont } if } bind def
/Tm { 2 copy 8 2 roll 6 array astore /cairo_font_matrix exch def
      cairo_store_point /cairo_font where { pop cairo_selectfont } if } bind def
/g { setgray } bind def
/rg { setrgbcolor } bind def
/d1 { setcachedevice } bind def
/cairo_data_source {
  CairoDataIndex CairoData length lt
    { CairoData CairoDataIndex get /CairoDataIndex CairoDataIndex 1 add def }
    { () } ifelse
} def
/cairo_flush_ascii85_file { cairo_ascii85_file status { cairo_ascii85_file flushfile } if } def
/cairo_image { image cairo_flush_ascii85_file } def
/cairo_imagemask { imagemask cairo_flush_ascii85_file } def
%%EndProlog
%%BeginSetup
%%EndSetup
%%Page: 1 1
%%BeginPageSetup
%%PageBoundingBox: 0 0 511 584
%%EndPageSetup
q 0 0 511 584 rectclip
1 0 0 -1 0 584 cm q
0 0.34902 0.556863 rg
382.625 108.625 m 352.812 90.062 324.688 82.75 296.562 64.188 c 279.125
 52.375 254.938 24.25 234.688 0.062 c 230.75 38.875 218.938 54.625 205.438
 65.875 c 176.75 88.375 158.75 95.125 134 108.625 c 113.188 119.312 0.125
 186.812 0.125 331.938 c 0.125 477.062 122.188 583.938 257.75 583.938 c 
393.312 583.938 510.875 485.5 510.875 336.438 c 510.875 187.375 400.625 
119.875 382.625 108.625 c h
382.625 108.625 m f
1 g
336.938 457.875 m 345.938 457.875 355.5 458.438 362.25 462.938 c 369 467.438
 372.938 477.562 375.188 483.188 c 377.438 488.812 375.188 492.188 370.688
 494.438 c 366.75 496.688 366.188 495.562 362.25 488.25 c 358.312 480.938
 354.938 473.625 335.25 473.625 c 315.562 473.625 309.375 480.375 299.812
 488.25 c 290.25 496.125 286.875 498.938 283.5 494.438 c 280.125 489.938
 281.25 485.438 287.438 479.812 c 293.625 474.188 303.75 465.188 313.312
 461.25 c 322.875 457.312 327.938 457.875 336.938 457.875 c h
336.938 457.875 m f
243.562 522 m 254.812 531 271.688 538.312 307.688 538.312 c 343.688 538.312
 369 528.188 380.25 519.75 c 385.312 515.812 387.562 519.188 388.125 521.438
 c 388.688 523.688 389.812 527.062 385.875 531 c 383.062 533.812 357.188
 551.812 326.812 554.625 c 296.438 557.438 255.375 559.125 230.625 536.625
 c 226.688 532.688 227.812 527.062 230.625 524.812 c 233.438 522.562 235.688
 520.875 239.062 520.875 c 242.438 520.875 241.875 520.875 243.562 522 c
 h
243.562 522 m f
0 0.45098 0.729412 rg
105.75 479.25 m 148.5 478.688 156.375 471.375 194.062 454.5 c 397.688 363.375
 435.375 280.125 442.688 261 c 450 241.875 460.688 210.938 449.438 176.625
 c 447.266 170 445.684 164.684 444.539 160.402 c 417.48 130.145 390.617 
113.633 382.5 108.562 c 353.25 90 324.562 82.688 296.438 64.125 c 279 52.875
 254.812 24.188 234.562 0 c 230.625 38.812 219.375 55.125 205.312 65.812
 c 176.625 88.312 158.625 95.062 133.875 108.562 c 113.062 119.812 0 186.75
 0 331.875 c 0 378.211 12.445 420.645 33.797 456.949 c 39.375 456.75 l 51.188
 467.438 69.75 479.812 105.75 479.25 c h
105.75 479.25 m f
0 0.286275 0.458824 rg
382.5 108.562 m 353.25 90 324.562 82.688 296.438 64.125 c 279 52.875 254.812
 24.188 234.562 0 c 230.625 38.812 219.375 55.125 205.312 65.812 c 176.625
 88.312 158.625 95.062 133.875 108.562 c 113.062 119.812 0 186.75 0 331.875
 c 0 378.211 12.445 420.645 33.797 456.949 c 79.32 534.352 165.344 583.875
 257.625 583.875 c 393.188 583.875 510.75 485.438 510.75 336.375 c 510.75
 254.516 477.5 197.258 444.539 160.402 c 417.48 130.145 390.613 113.633 
382.5 108.562 c h
450.871 174.41 m 487.805 220.582 506.531 275.074 506.531 336.375 c 506.531
 371.945 499.758 405.547 486.395 436.25 c 473.719 465.371 455.469 491.172
 432.145 512.938 c 386.043 555.961 324.066 579.656 257.625 579.656 c 224.754
 579.656 192.5 573.379 161.758 560.996 c 131.559 548.832 104.348 531.418
 80.875 509.23 c 31.441 462.508 4.219 399.523 4.219 331.875 c 4.219 271.621
 23.777 218.086 62.348 172.75 c 91.812 138.113 123.586 118.918 135.883 112.273
 c 141.852 109.02 147.449 106.145 152.863 103.367 c 169.836 94.656 185.867
 86.426 207.918 69.133 c 219.676 60.195 232.199 46.043 237.535 10.105 c 
256.113 32.207 277.676 57.039 294.152 67.672 c 308.777 77.324 323.777 84.086
 338.285 90.629 c 352.008 96.816 366.199 103.215 380.242 112.125 c 380.262
 112.141 380.766 112.453 380.766 112.453 c 421.816 138.082 443.688 165.426
 450.871 174.41 c h
450.871 174.41 m f
0.576471 0.772549 0.894118 rg
237.375 11.25 m 245.25 34.312 244.125 46.125 244.125 51.188 c 244.125 56.25
 241.312 69.75 232.312 76.5 c 228.375 79.312 227.25 81.562 227.25 82.125
 c 227.25 84.375 232.312 86.062 232.312 91.125 c 232.312 97.312 229.5 109.688
 199.688 139.5 c 169.875 169.312 127.125 195.75 93.938 212.062 c 60.75 228.375
 45 227.25 40.5 219.375 c 36 211.5 42.188 194.062 63 171 c 83.812 147.938
 149.625 114.75 149.625 114.75 c 231.75 57.375 l 236.25 35.438 l f
1 g
237.375 10.688 m 232.312 47.812 221.062 59.062 205.875 70.875 c 180.562
 90 155.812 101.812 150.188 104.625 c 135.562 111.938 82.688 141.188 55.125
 183.375 c 46.688 196.312 55.125 201.375 56.812 202.5 c 58.5 203.625 77.625
 205.875 118.688 181.125 c 159.75 156.375 177.75 141.75 200.812 117.562 
c 213.188 104.625 214.875 97.312 214.875 93.938 c 214.875 90 212.062 88.312
 207.562 87.188 c 205.312 86.625 204.75 85.5 207.562 83.812 c 210.375 82.125
 222.188 76.5 225 74.25 c 227.812 72 241.312 63 241.875 48.375 c 242.438
 33.75 241.312 23.625 237.375 10.688 c h
237.375 10.688 m f
110.812 419.625 m 111.375 375.75 152.438 334.688 204.188 334.125 c 270 
333.562 315.562 399.375 348.75 398.812 c 376.875 398.25 430.875 343.125 
457.312 343.125 c 485.438 343.125 493.312 372.375 493.312 389.812 c 493.312
 407.25 487.688 438.75 474.188 458.438 c 460.688 478.125 452.25 485.438 
436.5 484.312 c 416.25 482.625 375.75 419.625 349.875 418.5 c 317.25 417.375
 246.375 486.562 190.688 486.562 c 156.938 486.562 146.812 481.5 135.562
 474.188 c 118.688 462.375 110.25 444.375 110.812 419.625 c h
110.812 419.625 m f
Q Q
showpage
%%Trailer
end
%%EOF
