%!PS-Adobe-3.0 EPSF-3.0
%%Creator: cairo 1.16.0 (https://cairographics.org)
%%CreationDate: Tue Jan 28 11:39:45 2020
%%Pages: 1
%%DocumentData: Clean7Bit
%%LanguageLevel: 2
%%BoundingBox: 0 0 192 192
%%EndComments
%%BeginProlog
50 dict begin
/q { gsave } bind def
/Q { grestore } bind def
/cm { 6 array astore concat } bind def
/w { setlinewidth } bind def
/J { setlinecap } bind def
/j { setlinejoin } bind def
/M { setmiterlimit } bind def
/d { setdash } bind def
/m { moveto } bind def
/l { lineto } bind def
/c { curveto } bind def
/h { closepath } bind def
/re { exch dup neg 3 1 roll 5 3 roll moveto 0 rlineto
      0 exch rlineto 0 rlineto closepath } bind def
/S { stroke } bind def
/f { fill } bind def
/f* { eofill } bind def
/n { newpath } bind def
/W { clip } bind def
/W* { eoclip } bind def
/BT { } bind def
/ET { } bind def
/BDC { mark 3 1 roll /BDC pdfmark } bind def
/EMC { mark /EMC pdfmark } bind def
/cairo_store_point { /cairo_point_y exch def /cairo_point_x exch def } def
/Tj { show currentpoint cairo_store_point } bind def
/TJ {
  {
    dup
    type /stringtype eq
    { show } { -0.001 mul 0 cairo_font_matrix dtransform rmoveto } ifelse
  } forall
  currentpoint cairo_store_point
} bind def
/cairo_selectfont { cairo_font_matrix aload pop pop pop 0 0 6 array astore
    cairo_font exch selectfont cairo_point_x cairo_point_y moveto } bind def
/Tf { pop /cairo_font exch def /cairo_font_matrix where
      { pop cairo_selectfont } if } bind def
/Td { matrix translate cairo_font_matrix matrix concatmatrix dup
      /cairo_font_matrix exch def dup 4 get exch 5 get cairo_store_point
      /cairo_font where { pop cairo_selectfont } if } bind def
/Tm { 2 copy 8 2 roll 6 array astore /cairo_font_matrix exch def
      cairo_store_point /cairo_font where { pop cairo_selectfont } if } bind def
/g { setgray } bind def
/rg { setrgbcolor } bind def
/d1 { setcachedevice } bind def
/cairo_data_source {
  CairoDataIndex CairoData length lt
    { CairoData CairoDataIndex get /CairoDataIndex CairoDataIndex 1 add def }
    { () } ifelse
} def
/cairo_flush_ascii85_file { cairo_ascii85_file status { cairo_ascii85_file flushfile } if } def
/cairo_image { image cairo_flush_ascii85_file } def
/cairo_imagemask { imagemask cairo_flush_ascii85_file } def
%%EndProlog
%%BeginSetup
%%EndSetup
%%Page: 1 1
%%BeginPageSetup
%%PageBoundingBox: 0 0 192 192
%%EndPageSetup
q 0 0 192 192 rectclip
1 0 0 -1 0 192 cm q
0.168627 0.180392 0.227451 rg
192 96 m 192 149.02 149.02 192 96 192 c 42.98 192 0 149.02 0 96 c 0 42.98
 42.98 0 96 0 c 149.02 0 192 42.98 192 96 c h
192 96 m f*
0.623529 0.917647 0.976471 rg
75.375 53.766 m 55.871 50.215 40.453 53.934 34.305 64.578 c 29.719 72.523
 31.031 83.055 37.484 94.312 c 38.023 95.297 39.262 95.648 40.238 95.09 
c 41.211 94.531 41.535 93.285 40.953 92.324 c 35.141 82.184 34.008 73.094
 37.77 66.578 c 42.875 57.734 56.629 54.418 74.66 57.703 c 77.25 58.133 
77.953 54.277 75.375 53.766 c h
47.629 107.996 m 55.512 116.664 65.758 124.793 77.445 131.539 c 105.738
 147.875 135.855 152.238 150.699 142.117 c 151.637 141.504 151.887 140.242
 151.254 139.32 c 150.625 138.395 149.359 138.168 148.445 138.812 c 135.16
 147.871 106.551 143.727 79.445 128.074 c 68.109 121.531 58.188 113.66 50.586
 105.305 c 49.844 104.484 48.574 104.422 47.754 105.168 c 46.938 105.91 
46.879 107.18 47.629 107.996 c h
47.629 107.996 m f
145.965 105.566 m 158.734 90.477 163.195 75.305 157.062 64.68 c 152.547
 56.863 143.008 52.734 130.328 52.57 c 127.699 52.574 127.648 56.5 130.277
 56.57 c 141.68 56.719 149.898 60.273 153.598 66.68 c 158.691 75.504 154.715
 89.035 142.91 102.98 c 142.184 103.82 142.281 105.098 143.133 105.816 c
 143.98 106.535 145.254 106.422 145.965 105.566 c h
113.145 54.434 m 101.598 56.906 89.305 61.746 77.504 68.559 c 48.297 85.422
 29.242 110.285 31.891 128.316 c 32.039 129.422 33.062 130.191 34.164 130.027
 c 35.266 129.867 36.023 128.836 35.848 127.734 c 33.496 111.727 51.559 
88.156 79.504 72.023 c 90.953 65.414 102.855 60.73 113.98 58.344 c 115.078
 58.129 115.785 57.055 115.551 55.965 c 115.316 54.871 114.234 54.18 113.145
 54.434 c h
113.145 54.434 m f
65.828 140.816 m 72.504 159.461 83.43 170.941 95.711 170.941 c 104.672 
170.941 112.961 164.832 119.422 154.082 c 120.012 153.133 119.711 151.887
 118.754 151.312 c 117.797 150.738 116.555 151.055 115.996 152.02 c 110.188
 161.684 103.051 166.941 95.711 166.941 c 85.508 166.941 75.766 156.699 
69.594 139.469 c 69.238 138.406 68.078 137.84 67.023 138.219 c 65.969 138.598
 65.43 139.766 65.828 140.816 c h
126.82 137.168 m 130.277 126.121 132.133 113.379 132.133 100.102 c 132.133
 66.965 120.535 38.402 104.016 31.07 c 101.609 30.059 100.031 33.613 102.395
 34.723 c 117.125 41.266 128.133 68.375 128.133 100.102 c 128.133 112.984
 126.336 125.324 123.004 135.973 c 122.652 137.031 123.238 138.172 124.305
 138.508 c 125.371 138.84 126.5 138.238 126.82 137.168 c h
164.488 135.207 m 164.488 129.922 160.203 125.637 154.914 125.637 c 149.629
 125.637 145.344 129.922 145.344 135.207 c 145.344 140.496 149.629 144.781
 154.914 144.781 c 160.203 144.781 164.488 140.496 164.488 135.207 c h
160.488 135.207 m 160.488 136.688 159.898 138.105 158.855 139.148 c 157.809
 140.195 156.395 140.781 154.914 140.781 c 153.438 140.781 152.02 140.195
 150.973 139.148 c 149.93 138.105 149.344 136.688 149.344 135.207 c 149.344
 132.133 151.836 129.637 154.914 129.637 c 157.992 129.637 160.488 132.133
 160.488 135.207 c h
36.371 144.781 m 41.66 144.781 45.945 140.496 45.945 135.207 c 45.945 129.922
 41.66 125.637 36.371 125.637 c 31.086 125.637 26.801 129.922 26.801 135.207
 c 26.801 140.496 31.086 144.781 36.371 144.781 c h
36.371 140.781 m 34.895 140.781 33.477 140.195 32.434 139.148 c 31.387 
138.105 30.801 136.688 30.801 135.207 c 30.801 133.73 31.387 132.312 32.434
 131.27 c 33.477 130.223 34.895 129.637 36.371 129.637 c 39.449 129.637 
41.945 132.133 41.945 135.207 c 41.945 138.285 39.449 140.781 36.371 140.781
 c h
36.371 140.781 m f
95.711 40.832 m 101 40.832 105.285 36.547 105.285 31.262 c 105.285 25.973
 101 21.688 95.711 21.688 c 90.426 21.688 86.141 25.973 86.141 31.262 c 
86.141 36.547 90.426 40.832 95.711 40.832 c h
95.711 36.832 m 92.637 36.832 90.141 34.34 90.141 31.262 c 90.141 28.184
 92.637 25.688 95.711 25.688 c 98.789 25.688 101.285 28.184 101.285 31.262
 c 101.285 34.34 98.789 36.832 95.711 36.832 c h
97.176 106.871 m 93.438 107.676 89.754 105.301 88.941 101.562 c 88.137 
97.824 90.512 94.141 94.25 93.332 c 97.988 92.523 101.672 94.898 102.48 
98.637 c 103.289 102.375 100.914 106.059 97.176 106.871 c h
97.176 106.871 m f
Q Q
showpage
%%Trailer
end
%%EOF
