%!PS-Adobe-3.0 EPSF-3.0
%%Creator: cairo 1.16.0 (https://cairographics.org)
%%CreationDate: Mon Jan 27 23:35:57 2020
%%Pages: 1
%%DocumentData: Clean7Bit
%%LanguageLevel: 2
%%BoundingBox: 1 1 285 59
%%EndComments
%%BeginProlog
50 dict begin
/q { gsave } bind def
/Q { grestore } bind def
/cm { 6 array astore concat } bind def
/w { setlinewidth } bind def
/J { setlinecap } bind def
/j { setlinejoin } bind def
/M { setmiterlimit } bind def
/d { setdash } bind def
/m { moveto } bind def
/l { lineto } bind def
/c { curveto } bind def
/h { closepath } bind def
/re { exch dup neg 3 1 roll 5 3 roll moveto 0 rlineto
      0 exch rlineto 0 rlineto closepath } bind def
/S { stroke } bind def
/f { fill } bind def
/f* { eofill } bind def
/n { newpath } bind def
/W { clip } bind def
/W* { eoclip } bind def
/BT { } bind def
/ET { } bind def
/BDC { mark 3 1 roll /BDC pdfmark } bind def
/EMC { mark /EMC pdfmark } bind def
/cairo_store_point { /cairo_point_y exch def /cairo_point_x exch def } def
/Tj { show currentpoint cairo_store_point } bind def
/TJ {
  {
    dup
    type /stringtype eq
    { show } { -0.001 mul 0 cairo_font_matrix dtransform rmoveto } ifelse
  } forall
  currentpoint cairo_store_point
} bind def
/cairo_selectfont { cairo_font_matrix aload pop pop pop 0 0 6 array astore
    cairo_font exch selectfont cairo_point_x cairo_point_y moveto } bind def
/Tf { pop /cairo_font exch def /cairo_font_matrix where
      { pop cairo_selectfont } if } bind def
/Td { matrix translate cairo_font_matrix matrix concatmatrix dup
      /cairo_font_matrix exch def dup 4 get exch 5 get cairo_store_point
      /cairo_font where { pop cairo_selectfont } if } bind def
/Tm { 2 copy 8 2 roll 6 array astore /cairo_font_matrix exch def
      cairo_store_point /cairo_font where { pop cairo_selectfont } if } bind def
/g { setgray } bind def
/rg { setrgbcolor } bind def
/d1 { setcachedevice } bind def
/cairo_data_source {
  CairoDataIndex CairoData length lt
    { CairoData CairoDataIndex get /CairoDataIndex CairoDataIndex 1 add def }
    { () } ifelse
} def
/cairo_flush_ascii85_file { cairo_ascii85_file status { cairo_ascii85_file flushfile } if } def
/cairo_image { image cairo_flush_ascii85_file } def
/cairo_imagemask { imagemask cairo_flush_ascii85_file } def
%%EndProlog
%%BeginSetup
%%EndSetup
%%Page: 1 1
%%BeginPageSetup
%%PageBoundingBox: 1 1 285 59
%%EndPageSetup
q 1 1 284 58 rectclip
1 0 0 -1 0 60 cm q
0.231373 0.227451 0.25098 rg
89.25 12.977 m 89.25 36.449 l 89.25 38.551 89.398 40.5 87.523 41.926 c 
85.801 43.352 82.875 43.801 79.727 43.801 c 74.926 43.801 69.824 42.676 
69.824 42.676 c 68.699 45.676 l 68.699 45.676 75.824 47.176 81 47.25 c 85.352
 47.324 89.176 46.352 91.273 43.949 c 93 42 93.523 39.75 93.449 35.926 c
 93.449 12.977 l 89.25 12.977 l f
124.273 25.949 m 121.125 24.227 117.301 23.324 112.949 23.324 c 108.676
 23.324 104.852 24.227 101.625 25.949 c 97.574 28.125 95.551 31.352 95.551
 35.398 c 95.551 39.449 97.574 42.676 101.625 44.852 c 104.852 46.574 108.602
 47.477 112.949 47.477 c 117.227 47.477 121.051 46.574 124.199 44.852 c 
128.25 42.676 130.273 39.449 130.273 35.398 c 130.273 31.273 128.25 28.125
 124.273 25.949 c 121.801 42.449 m 119.324 43.875 116.398 44.551 112.949
 44.551 c 109.426 44.551 106.426 43.875 104.023 42.523 c 101.102 40.875 
99.676 38.551 99.676 35.398 c 99.676 32.324 101.176 29.926 104.023 28.273
 c 106.426 26.926 109.426 26.25 112.949 26.25 c 116.398 26.25 119.398 26.926
 121.875 28.273 c 124.727 29.926 126.227 32.324 126.227 35.398 c 126.148
 38.398 124.727 40.801 121.801 42.449 c h
121.801 42.449 m f
161.176 25.949 m 158.023 24.227 154.199 23.324 149.852 23.324 c 145.574
 23.324 141.75 24.227 138.523 25.949 c 134.477 28.125 132.449 31.352 132.449
 35.398 c 132.449 39.449 134.477 42.676 138.523 44.852 c 141.75 46.574 145.5
 47.477 149.852 47.477 c 154.125 47.477 157.949 46.574 161.102 44.852 c 
165.148 42.676 167.176 39.449 167.176 35.398 c 167.176 31.273 165.148 28.125
 161.176 25.949 c 158.699 42.449 m 156.227 43.875 153.301 44.551 149.852
 44.551 c 146.324 44.551 143.324 43.875 140.926 42.523 c 138 40.875 136.574
 38.551 136.574 35.398 c 136.574 32.324 138.074 29.926 140.926 28.273 c 
143.324 26.926 146.324 26.25 149.852 26.25 c 153.301 26.25 156.301 26.926
 158.773 28.273 c 161.625 29.926 163.125 32.324 163.125 35.398 c 163.051
 38.398 161.625 40.801 158.699 42.449 c h
158.699 42.449 m f
212.102 25.352 m 209.852 24 206.926 23.324 203.477 23.324 c 199.051 23.324
 195.523 24.676 192.824 27.375 c 190.273 24.676 186.676 23.324 182.25 23.324
 c 178.648 23.324 175.727 24.074 173.477 25.5 c 173.477 24.977 173.477 23.625
 173.477 23.625 c 169.5 23.625 l 169.5 46.949 l 173.477 46.949 l 173.477
 31.051 l 173.773 29.926 174.523 28.875 175.727 27.977 c 177.375 26.852 
179.477 26.25 182.102 26.25 c 184.426 26.25 186.375 26.699 188.023 27.676
 c 189.977 28.801 190.875 30.301 190.875 32.398 c 190.875 47.102 l 194.773
 47.102 l 194.773 32.324 l 194.773 30.227 195.676 28.727 197.625 27.602 
c 199.273 26.699 201.301 26.176 203.625 26.176 c 205.949 26.176 207.977 
26.625 209.625 27.602 c 211.574 28.727 212.477 30.227 212.477 32.324 c 212.477
 47.023 l 216.449 47.023 l 216.449 32.852 l 216.375 29.551 214.875 27 212.102
 25.352 c f
219.523 12.977 3.977 34.047 re f
267.824 12.977 3.977 26.324 re f
257.398 23.625 m 257.398 23.625 257.398 26.852 257.398 27.602 c 254.023
 24.75 249.523 23.25 243.977 23.25 c 239.551 23.25 235.727 24.074 232.574
 25.801 c 228.676 27.977 226.648 31.125 226.648 35.324 c 226.648 39.449 
228.676 42.676 232.727 44.773 c 235.875 46.5 239.699 47.324 244.125 47.324
 c 246.301 47.324 248.477 47.102 250.426 46.574 c 253.199 45.824 255.523
 44.773 257.324 43.352 c 257.324 44.176 257.324 46.949 257.324 46.949 c 
261.301 46.949 l 261.301 23.625 l 257.398 23.625 l 230.852 35.398 m 230.852
 32.324 232.352 29.926 235.199 28.273 c 237.602 26.926 240.676 26.25 244.199
 26.25 c 248.551 26.25 251.926 27.301 254.324 29.398 c 256.426 31.273 257.477
 33.676 257.477 36.602 c 257.477 36.602 257.477 39.148 257.477 39.375 c 
255.824 41.25 253.352 42.676 250.199 43.648 c 248.324 44.25 246.301 44.551
 244.199 44.551 c 240.602 44.551 237.602 43.875 235.199 42.602 c 232.273
 40.875 230.852 38.551 230.852 35.398 c h
230.852 35.398 m f
269.852 42.602 m 267.074 42.602 266.699 44.023 266.699 44.926 c 266.699
 45.824 267.148 47.25 269.852 47.25 c 272.625 47.25 273 45.75 273 44.926
 c 273 44.102 272.551 42.602 269.852 42.602 c h
269.852 42.602 m f
284.102 17.176 m 284.102 19.5 282.602 21.449 279.898 21.449 c 277.199 21.449
 275.699 19.5 275.699 17.176 c 275.699 14.852 277.199 12.898 279.898 12.898
 c 282.602 12.898 284.102 14.852 284.102 17.176 c h
276.602 17.176 m 276.602 19.125 277.801 20.625 279.898 20.625 c 282 20.625
 283.199 19.125 283.199 17.176 c 283.199 15.227 282 13.727 279.898 13.727
 c 277.801 13.727 276.602 15.227 276.602 17.176 c h
280.727 17.699 m 282.375 17.398 282.227 14.926 280.352 14.926 c 278.324
 14.926 l 278.324 19.273 l 279.148 19.273 l 279.148 17.773 l 279.898 17.773
 l 281.102 19.273 l 282 19.273 l 282 19.125 l h
280.352 15.676 m 281.324 15.676 281.324 17.102 280.352 17.102 c 279.148
 17.102 l 279.148 15.676 l h
280.352 15.676 m f
0.478431 0.756863 0.262745 rg
12 30.148 m 10.949 29.102 l 7.574 25.727 6.602 21 7.801 16.727 c 4.426 
15.977 1.949 12.977 1.949 9.375 c 1.949 5.25 5.324 1.875 9.449 1.875 c 13.199
 1.875 16.273 4.574 16.875 8.176 c 20.926 7.199 25.352 8.324 28.5 11.477
 c 28.949 11.926 l 23.398 17.477 l 22.949 17.023 l 21.148 15.227 18.227 
15.227 16.426 17.023 c 14.625 18.824 14.625 21.75 16.426 23.551 c 28.875
 36 l 23.324 41.551 l 17.477 35.699 l h
12 30.148 m f
0.976471 0.647059 0.254902 rg
18.227 24 m 24.074 18.148 l 29.625 12.602 l 30.676 11.551 l 33.977 8.25
 38.773 7.199 42.977 8.398 c 43.5 4.727 46.648 1.949 50.398 1.949 c 54.523
 1.949 57.898 5.324 57.898 9.449 c 57.898 13.273 55.051 16.426 51.375 16.875
 c 52.574 21.074 51.523 25.801 48.227 29.102 c 47.773 29.551 l 42.375 24
 l 42.824 23.551 l 44.625 21.75 44.625 18.824 42.824 17.023 c 41.023 15.227
 38.102 15.227 36.301 17.023 c 29.699 23.625 l 23.852 29.477 l h
18.227 24 m f
0.956863 0.262745 0.129412 rg
43.199 51.977 m 38.926 53.25 34.125 52.273 30.75 48.898 c 30.301 48.449
 l 35.852 42.898 l 36.301 43.352 l 38.102 45.148 41.023 45.148 42.824 43.352
 c 44.625 41.551 44.625 38.625 42.824 36.824 c 30.375 24.375 l 35.926 18.824
 l 48.449 31.352 l 51.602 34.5 52.727 39 51.75 43.125 c 55.426 43.648 58.199
 46.801 58.199 50.551 c 58.199 54.676 54.824 58.051 50.699 58.051 c 46.949
 57.977 43.875 55.352 43.199 51.977 c h
43.199 51.977 m f
0.313726 0.568627 0.803922 rg
41.023 36.375 m 35.176 42.227 l 29.625 47.773 l 28.574 48.824 l 25.352 
52.051 20.852 53.102 16.801 52.125 c 16.051 55.5 13.051 57.977 9.449 57.977
 c 5.324 57.977 1.949 54.602 1.949 50.477 c 1.949 46.949 4.426 43.949 7.727
 43.199 c 6.676 39 7.727 34.5 10.949 31.273 c 11.398 30.824 l 16.949 36.375
 l 16.5 36.824 l 14.699 38.625 14.699 41.551 16.5 43.352 c 18.301 45.148
 21.227 45.148 23.023 43.352 c 35.477 30.898 l h
41.023 36.375 m f
Q Q
showpage
%%Trailer
end
%%EOF
