%!PS-Adobe-3.0 EPSF-3.0
%%Creator: cairo 1.16.0 (https://cairographics.org)
%%CreationDate: Mon Jan 27 22:59:19 2020
%%Pages: 1
%%DocumentData: Clean7Bit
%%LanguageLevel: 2
%%BoundingBox: 0 0 209 54
%%EndComments
%%BeginProlog
50 dict begin
/q { gsave } bind def
/Q { grestore } bind def
/cm { 6 array astore concat } bind def
/w { setlinewidth } bind def
/J { setlinecap } bind def
/j { setlinejoin } bind def
/M { setmiterlimit } bind def
/d { setdash } bind def
/m { moveto } bind def
/l { lineto } bind def
/c { curveto } bind def
/h { closepath } bind def
/re { exch dup neg 3 1 roll 5 3 roll moveto 0 rlineto
      0 exch rlineto 0 rlineto closepath } bind def
/S { stroke } bind def
/f { fill } bind def
/f* { eofill } bind def
/n { newpath } bind def
/W { clip } bind def
/W* { eoclip } bind def
/BT { } bind def
/ET { } bind def
/BDC { mark 3 1 roll /BDC pdfmark } bind def
/EMC { mark /EMC pdfmark } bind def
/cairo_store_point { /cairo_point_y exch def /cairo_point_x exch def } def
/Tj { show currentpoint cairo_store_point } bind def
/TJ {
  {
    dup
    type /stringtype eq
    { show } { -0.001 mul 0 cairo_font_matrix dtransform rmoveto } ifelse
  } forall
  currentpoint cairo_store_point
} bind def
/cairo_selectfont { cairo_font_matrix aload pop pop pop 0 0 6 array astore
    cairo_font exch selectfont cairo_point_x cairo_point_y moveto } bind def
/Tf { pop /cairo_font exch def /cairo_font_matrix where
      { pop cairo_selectfont } if } bind def
/Td { matrix translate cairo_font_matrix matrix concatmatrix dup
      /cairo_font_matrix exch def dup 4 get exch 5 get cairo_store_point
      /cairo_font where { pop cairo_selectfont } if } bind def
/Tm { 2 copy 8 2 roll 6 array astore /cairo_font_matrix exch def
      cairo_store_point /cairo_font where { pop cairo_selectfont } if } bind def
/g { setgray } bind def
/rg { setrgbcolor } bind def
/d1 { setcachedevice } bind def
/cairo_data_source {
  CairoDataIndex CairoData length lt
    { CairoData CairoDataIndex get /CairoDataIndex CairoDataIndex 1 add def }
    { () } ifelse
} def
/cairo_flush_ascii85_file { cairo_ascii85_file status { cairo_ascii85_file flushfile } if } def
/cairo_image { image cairo_flush_ascii85_file } def
/cairo_imagemask { imagemask cairo_flush_ascii85_file } def
%%EndProlog
%%BeginSetup
%%EndSetup
%%Page: 1 1
%%BeginPageSetup
%%PageBoundingBox: 0 0 209 54
%%EndPageSetup
q 0 0 209 54 rectclip
1 0 0 -1 0 54 cm q
0.027451 0.411765 0.678431 rg
80.398 47.25 m 80.398 47.699 80.324 48.148 80.324 48.676 c 82.199 45.301
 l 81.977 44.176 l 83.852 43.875 l 84.523 48.602 l 85.352 45.676 l 85.426
 45.375 85.426 45.148 85.426 44.926 c 85.426 44.699 85.426 44.477 85.352
 44.176 c 87.301 43.801 l 87.375 44.176 87.449 44.551 87.375 44.926 c 87.375
 45.375 87.227 45.898 86.926 46.727 c 85.352 51 l 83.023 51 l 82.5 47.852
 l 80.699 51 l 78.449 51 l 78.523 48.074 78.449 46.199 78.227 44.25 c 80.176
 43.949 l 80.398 44.926 80.477 46.051 80.398 47.25 c h
80.398 47.25 m f
92.551 45.602 m 91.648 46.051 91.273 46.273 90.449 46.801 c 89.551 50.926
 l 87.523 50.926 l 88.949 44.102 l 90.75 43.801 l 90.676 44.773 l 91.352
 44.398 91.949 44.102 92.551 43.801 c h
92.551 45.602 m f
93.75 44.102 m 95.852 43.801 l 94.352 50.926 l 92.324 50.926 l h
94.426 41.023 m 96.523 40.727 l 96.074 42.898 l 93.977 43.199 l h
94.426 41.023 m f
99.602 45.523 m 98.852 48.977 l 98.852 49.051 98.852 49.125 98.852 49.125
 c 98.852 49.199 98.926 49.273 99.074 49.273 c 99.449 49.273 99.824 49.125
 100.199 48.977 c 100.574 50.398 l 99.977 50.699 99.148 51 98.324 51 c 97.273
 51 96.75 50.477 96.824 49.648 c 96.824 49.574 96.824 49.426 96.898 49.352
 c 97.727 45.449 l 96.676 45.449 l 97.051 43.801 l 98.102 43.801 l 98.477
 42.148 l 100.574 41.852 l 100.199 43.801 l 101.852 43.801 l 101.398 45.449
 l 99.602 45.449 l h
99.602 45.523 m f
102 46.426 m 102.375 44.852 103.125 43.801 105.301 43.801 c 106.648 43.801
 107.625 44.398 107.551 45.523 c 107.477 46.875 106.801 47.551 105.074 48
 c 104.25 48.227 104.176 48.227 103.574 48.449 c 103.5 48.898 l 103.426 
49.125 103.5 49.426 103.875 49.426 c 104.625 49.426 105.676 49.051 106.648
 48.676 c 106.949 50.102 l 106.051 50.625 104.699 51.074 103.5 51.074 c 
102.074 51.074 101.477 50.477 101.477 49.273 c 101.477 49.051 101.551 48.75
 101.625 48.449 c h
105.676 45.75 m 105.676 45.523 105.449 45.375 105.074 45.375 c 104.324 
45.375 104.102 45.824 104.023 46.352 c 103.949 46.875 l 104.324 46.801 104.477
 46.727 104.852 46.648 c 105.375 46.426 105.676 46.199 105.676 45.75 c h
105.676 45.75 m f
112.801 41.102 m 114.898 40.801 l 112.801 50.926 l 110.773 50.926 l h
112.801 41.102 m f
115.125 46.426 m 115.5 44.852 116.25 43.801 118.426 43.801 c 119.773 43.801
 120.75 44.398 120.676 45.523 c 120.602 46.875 119.926 47.551 118.199 48
 c 117.375 48.227 117.301 48.227 116.699 48.449 c 116.625 48.898 l 116.551
 49.125 116.625 49.426 117 49.426 c 117.75 49.426 118.801 49.051 119.773
 48.676 c 120.074 50.102 l 119.176 50.625 117.824 51.074 116.625 51.074 
c 115.199 51.074 114.602 50.477 114.602 49.273 c 114.602 49.051 114.676 
48.75 114.75 48.449 c h
118.801 45.75 m 118.801 45.523 118.574 45.375 118.199 45.375 c 117.449 
45.375 117.227 45.824 117.148 46.352 c 117.074 46.875 l 117.449 46.801 117.602
 46.727 117.977 46.648 c 118.5 46.426 118.801 46.199 118.801 45.75 c h
118.801 45.75 m f
120.898 50.625 m 121.352 49.125 l 121.875 49.273 122.477 49.5 123.227 49.5
 c 123.898 49.5 123.977 49.273 124.051 48.977 c 124.125 48.676 123.898 48.523
 123.148 48.074 c 121.727 47.324 121.648 46.801 121.875 45.75 c 122.176 
44.25 122.625 43.875 124.574 43.875 c 125.25 43.875 126.074 44.023 126.676
 44.176 c 126.301 45.676 l 125.773 45.523 125.023 45.449 124.574 45.449 
c 123.977 45.449 123.898 45.523 123.824 45.898 c 123.75 46.199 123.824 46.273
 124.5 46.648 c 126.074 47.477 126.301 47.773 126.074 48.898 c 125.699 50.477
 125.25 51.074 123.148 51.074 c 122.398 51.074 121.5 50.852 120.898 50.625
 c h
120.898 50.625 m f
126.676 50.625 m 127.125 49.125 l 127.648 49.273 128.25 49.5 129 49.5 c
 129.676 49.5 129.75 49.273 129.824 48.977 c 129.898 48.676 129.676 48.523
 128.926 48.074 c 127.5 47.324 127.426 46.801 127.648 45.75 c 127.949 44.25
 128.398 43.875 130.352 43.875 c 131.023 43.875 131.852 44.023 132.449 44.176
 c 132.074 45.676 l 131.551 45.523 130.801 45.449 130.352 45.449 c 129.75
 45.449 129.676 45.523 129.602 45.898 c 129.523 46.199 129.602 46.273 130.273
 46.648 c 131.852 47.477 132.074 47.773 131.852 48.898 c 131.477 50.477 
131.023 51.074 128.926 51.074 c 128.176 51.074 127.273 50.852 126.676 50.625
 c h
126.676 50.625 m f
132.227 52.5 m 133.352 50.926 l 132.602 50.926 l 133.125 48.523 l 135.148
 48.523 l 134.625 51.074 l 132.977 53.023 l h
132.227 52.5 m f
143.25 50.926 m 143.25 50.324 l 142.727 50.773 141.977 51.074 141 51.074
 c 139.5 51.074 139.125 50.176 139.5 48.602 c 139.875 46.727 l 140.25 45.074
 140.699 43.801 143.625 43.801 c 143.852 43.801 144.301 43.801 144.449 43.875
 c 145.051 41.102 l 147.148 40.801 l 145.051 50.926 l h
141.375 48.824 m 141.301 49.199 141.375 49.352 141.75 49.352 c 142.5 49.352
 143.023 48.977 143.398 48.602 c 144.074 45.523 l 143.852 45.449 143.551
 45.449 143.324 45.449 c 142.273 45.449 142.051 45.977 141.898 46.648 c 
h
141.375 48.824 m f
146.852 48.75 m 146.852 48.602 146.852 48.449 146.926 48.227 c 147.301 
46.574 l 147.676 44.773 148.574 43.727 151.051 43.727 c 152.926 43.727 153.75
 44.773 153.676 46.051 c 153.676 46.199 153.676 46.352 153.602 46.574 c 
153.227 48.227 l 152.852 49.875 152.023 51.074 149.477 51.074 c 147.676 
51.074 146.773 50.023 146.852 48.75 c h
151.574 46.273 m 151.574 45.75 151.273 45.449 150.602 45.449 c 149.852 
45.449 149.398 45.824 149.25 46.5 c 148.875 48.227 l 148.875 48.301 148.875
 48.449 148.801 48.523 c 148.801 49.051 149.102 49.352 149.773 49.352 c 
150.523 49.352 150.977 48.977 151.125 48.301 c 151.5 46.574 l 151.574 46.426
 151.574 46.352 151.574 46.273 c h
151.574 46.273 m f
165.977 46.199 m 165.977 46.125 165.977 46.051 165.977 45.977 c 165.977
 45.824 165.898 45.75 165.676 45.75 c 165.301 45.75 164.398 46.125 163.801
 46.426 c 162.824 50.926 l 160.801 50.926 l 161.773 46.199 l 161.773 46.125
 161.773 46.051 161.773 45.977 c 161.773 45.824 161.699 45.75 161.477 45.75
 c 161.102 45.75 160.199 46.125 159.676 46.426 c 158.699 50.926 l 156.676
 50.926 l 158.102 44.102 l 159.898 43.801 l 159.824 44.551 l 160.949 44.023
 161.773 43.727 162.602 43.727 c 163.273 43.727 163.648 44.023 163.801 44.551
 c 164.852 43.949 165.824 43.727 166.648 43.727 c 167.551 43.727 167.926
 44.25 167.852 45.148 c 167.852 45.375 167.852 45.676 167.773 45.977 c 166.727
 50.852 l 165 50.852 l h
165.977 46.199 m f
168.824 48.75 m 168.824 48.602 168.824 48.449 168.898 48.227 c 169.273 
46.574 l 169.648 44.773 170.551 43.727 173.023 43.727 c 174.898 43.727 175.727
 44.773 175.648 46.051 c 175.648 46.199 175.648 46.352 175.574 46.574 c 
175.199 48.227 l 174.824 49.875 174 51.074 171.449 51.074 c 169.648 51.074
 168.75 50.023 168.824 48.75 c h
173.551 46.273 m 173.551 45.75 173.25 45.449 172.574 45.449 c 171.824 45.449
 171.375 45.824 171.227 46.5 c 170.852 48.227 l 170.852 48.301 170.852 48.449
 170.773 48.523 c 170.773 49.051 171.074 49.352 171.75 49.352 c 172.5 49.352
 172.949 48.977 173.102 48.301 c 173.477 46.574 l 173.551 46.426 173.551
 46.352 173.551 46.273 c h
173.551 46.273 m f
180.898 45.602 m 180 46.051 179.625 46.273 178.801 46.801 c 177.898 50.926
 l 175.875 50.926 l 177.301 44.102 l 179.102 43.801 l 179.023 44.773 l 179.699
 44.398 180.301 44.102 180.898 43.801 c h
180.898 45.602 m f
181.426 46.426 m 181.801 44.852 182.551 43.801 184.727 43.801 c 186.074
 43.801 187.051 44.398 186.977 45.523 c 186.898 46.875 186.227 47.551 184.5
 48 c 183.676 48.227 183.602 48.227 183 48.449 c 182.926 48.898 l 182.852
 49.125 182.926 49.426 183.301 49.426 c 184.051 49.426 185.102 49.051 186.074
 48.676 c 186.375 50.102 l 185.477 50.625 184.125 51.074 182.926 51.074 
c 181.5 51.074 180.898 50.477 180.898 49.273 c 180.898 49.051 180.977 48.75
 181.051 48.449 c h
185.102 45.75 m 185.102 45.523 184.875 45.375 184.5 45.375 c 183.75 45.375
 183.523 45.824 183.449 46.352 c 183.375 46.875 l 183.75 46.801 183.898 
46.727 184.273 46.648 c 184.801 46.426 185.023 46.199 185.102 45.75 c h
185.102 45.75 m f
187.801 48.523 m 189.824 48.523 l 189.301 50.926 l 187.273 50.926 l h
187.801 48.523 m f
2.477 10.051 m -0.977 14.926 -0.523 21.375 2.102 26.551 c 2.102 26.699 
2.176 26.852 2.25 27 c 2.25 27.074 2.324 27.148 2.398 27.227 c 2.398 27.301
 2.477 27.301 2.477 27.375 c 2.551 27.449 2.551 27.523 2.625 27.602 c 2.699
 27.75 2.773 27.898 2.852 28.051 c 2.926 28.125 2.926 28.199 3 28.273 c 
3.074 28.426 3.227 28.574 3.301 28.727 c 3.375 28.801 3.375 28.875 3.449
 28.949 c 3.602 29.176 3.75 29.324 3.898 29.551 c 3.898 29.551 3.977 29.625
 3.977 29.625 c 4.125 29.773 4.199 30 4.352 30.148 c 4.426 30.227 4.426 
30.301 4.5 30.301 c 4.648 30.449 4.727 30.602 4.875 30.75 c 4.949 30.824
 4.949 30.824 5.023 30.898 c 5.176 31.125 5.324 31.273 5.551 31.426 c 5.699
 31.574 5.852 31.801 6.074 31.949 c 6.148 32.023 6.148 32.023 6.227 32.102
 c 6.375 32.25 6.449 32.324 6.602 32.477 c 6.676 32.551 6.676 32.551 6.75
 32.625 c 6.898 32.773 7.125 32.926 7.273 33.148 c 7.273 33.148 7.352 33.227
 7.352 33.227 c 7.5 33.375 7.648 33.523 7.875 33.676 c 7.949 33.75 8.023
 33.75 8.102 33.824 c 8.25 33.898 8.398 34.051 8.551 34.125 c 8.625 34.199
 8.699 34.199 8.773 34.273 c 8.926 34.426 9.074 34.5 9.227 34.574 c 9.301
 34.648 9.301 34.648 9.375 34.727 c 9.375 34.727 9.375 34.727 9.449 34.727
 c 9.602 34.801 9.75 34.949 9.898 35.023 c 9.977 35.102 10.051 35.102 10.125
 35.176 c 10.352 35.324 10.574 35.477 10.801 35.625 c 10.875 35.625 10.949
 35.699 11.023 35.699 c 11.176 35.773 11.398 35.926 11.551 36 c 11.625 36.074
 11.773 36.074 11.852 36.148 c 12 36.227 12.074 36.301 12.227 36.375 c 12.227
 36.375 12.301 36.375 12.301 36.449 c 12.375 36.449 12.375 36.523 12.449
 36.523 c 12.676 36.602 12.824 36.75 13.051 36.824 c 13.125 36.824 13.125
 36.824 13.199 36.898 c 13.426 36.977 13.648 37.125 13.875 37.199 c 13.949
 37.199 13.949 37.273 14.023 37.273 c 14.25 37.352 14.477 37.426 14.699 
37.5 c 14.699 37.5 14.773 37.5 14.773 37.5 c 15 37.574 15.301 37.648 15.523
 37.727 c 15.602 37.727 15.676 37.801 15.676 37.801 c 15.898 37.875 16.199
 37.949 16.426 38.023 c 32.926 41.023 37.727 28.125 37.727 28.125 c 33.676
 33.375 26.551 34.727 19.727 33.227 c 19.5 33.148 19.199 33.074 18.977 33
 c 18.898 33 18.824 33 18.824 32.926 c 18.602 32.852 18.301 32.773 18.074
 32.699 c 18.074 32.699 18 32.699 18 32.625 c 17.773 32.551 17.551 32.477
 17.324 32.398 c 17.25 32.398 17.176 32.324 17.176 32.324 c 16.949 32.25
 16.727 32.102 16.5 32.023 c 16.426 32.023 16.426 31.949 16.352 31.949 c
 16.125 31.875 15.977 31.801 15.75 31.648 c 15.676 31.648 15.676 31.574 
15.602 31.574 c 15.449 31.5 15.301 31.426 15.148 31.352 c 15.074 31.273 
14.926 31.273 14.852 31.199 c 14.699 31.125 14.477 30.977 14.324 30.898 
c 14.25 30.824 14.176 30.824 14.176 30.824 c 13.949 30.676 13.727 30.523
 13.5 30.375 c 13.426 30.301 13.352 30.301 13.273 30.227 c 13.125 30.148
 12.898 30 12.75 29.926 c 12.676 29.852 12.676 29.852 12.602 29.773 c 12.449
 29.699 12.301 29.551 12.148 29.398 c 12.074 29.324 12 29.324 11.926 29.25
 c 11.773 29.176 11.625 29.023 11.477 28.949 c 11.398 28.875 11.324 28.875
 11.25 28.801 c 11.102 28.648 10.875 28.5 10.727 28.352 c 10.727 28.352 
10.648 28.352 10.648 28.273 c 10.5 28.125 10.273 27.898 10.125 27.75 c 10.051
 27.676 10.051 27.676 9.977 27.602 c 9.824 27.449 9.676 27.375 9.602 27.227
 c 9.523 27.148 9.523 27.148 9.449 27.074 c 9.301 26.926 9.148 26.699 8.926
 26.551 c 8.773 26.398 8.625 26.176 8.398 25.949 c 8.324 25.875 8.324 25.875
 8.25 25.801 c 8.102 25.648 8.023 25.5 7.875 25.352 c 7.801 25.273 7.801
 25.273 7.727 25.199 c 7.5 25.125 7.352 24.898 7.199 24.75 c 3.449 19.648
 2.102 12.523 5.102 6.75 c f
13.051 5.926 m 10.574 9.523 10.727 14.25 12.676 18 c 12.977 18.602 13.352
 19.273 13.801 19.801 c 14.176 20.324 14.551 20.926 15.074 21.375 c 15.227
 21.602 15.449 21.75 15.602 21.977 c 15.676 22.051 15.676 22.051 15.75 22.125
 c 15.898 22.273 16.125 22.5 16.352 22.648 c 16.574 22.875 16.801 23.023
 17.023 23.176 c 17.102 23.25 17.102 23.25 17.176 23.324 c 17.398 23.477
 17.625 23.699 17.852 23.852 c 17.926 23.926 18.074 24 18.148 24.074 c 18.227
 24.074 18.227 24.148 18.301 24.148 c 18.449 24.227 18.676 24.375 18.824
 24.449 c 18.824 24.449 18.898 24.449 18.898 24.523 c 19.051 24.602 19.199
 24.676 19.352 24.75 c 19.426 24.75 19.426 24.824 19.5 24.824 c 19.574 24.898
 19.727 24.898 19.801 24.977 c 19.801 24.977 19.801 24.977 19.875 24.977
 c 20.102 25.051 20.324 25.199 20.551 25.273 c 20.625 25.273 20.625 25.352
 20.699 25.352 c 20.852 25.426 21.074 25.5 21.227 25.574 c 21.301 25.574
 21.375 25.648 21.449 25.648 c 21.602 25.727 21.75 25.801 21.977 25.801 
c 22.051 25.801 22.125 25.875 22.199 25.875 c 22.426 25.949 22.648 26.023
 22.949 26.102 c 35.699 28.199 38.625 18.375 38.625 18.375 c 36 22.199 30.824
 24 25.352 22.574 c 25.125 22.5 24.898 22.426 24.602 22.352 c 24.523 22.352
 24.449 22.273 24.375 22.273 c 24.227 22.199 24 22.199 23.852 22.125 c 23.773
 22.125 23.699 22.051 23.625 22.051 c 23.477 21.977 23.25 21.898 23.102 
21.824 c 23.023 21.824 23.023 21.75 22.949 21.75 c 22.727 21.676 22.5 21.523
 22.273 21.449 c 22.199 21.375 22.051 21.301 21.977 21.301 c 21.898 21.301
 21.824 21.227 21.75 21.227 c 21.602 21.148 21.449 21.074 21.301 21 c 21.301
 21 21.227 21 21.227 20.926 c 21.074 20.852 20.852 20.699 20.699 20.625 
c 20.625 20.625 20.625 20.551 20.551 20.551 c 20.477 20.477 20.324 20.398
 20.25 20.324 c 20.023 20.176 19.801 20.023 19.574 19.801 c 19.5 19.727 
19.5 19.727 19.426 19.648 c 17.023 17.773 15.148 15.148 14.25 12.227 c 13.273
 9.148 13.5 5.773 15.148 3 c f
21.977 2.852 m 20.551 5.023 20.398 7.648 21.375 10.051 c 22.426 12.602 
24.602 14.551 27.148 15.449 c 27.227 15.523 27.375 15.523 27.449 15.523 
c 27.523 15.523 27.523 15.523 27.602 15.602 c 27.75 15.676 27.898 15.676
 28.051 15.75 c 35.102 17.102 36.977 12.148 37.5 11.398 c 35.852 13.801 
33 14.398 29.551 13.574 c 29.25 13.5 28.949 13.426 28.727 13.352 c 28.426
 13.199 28.051 13.125 27.75 12.977 c 27.148 12.676 26.551 12.301 26.023 
11.926 c 22.949 9.602 21 5.102 23.023 1.5 c f
0.2 g
185.25 12.898 m 185.551 14.102 l 185.625 14.398 185.398 14.699 185.102 
14.699 c f
163.051 10.875 m 162.977 11.176 162.898 11.625 162.824 11.852 c 160.352
 23.25 l 162.898 11.25 l h
163.051 10.875 m f
90 18.523 m 88.648 23.324 l h
90 18.523 m f
185.551 14.102 m 184.875 11.102 l 184.352 8.926 182.773 7.949 179.25 7.949
 c 164.398 7.949 l 164.023 7.949 163.727 8.102 163.648 8.477 c 158.023 35.176
 l 157.949 35.551 157.949 35.773 157.949 35.926 c 158.023 36.074 158.625
 36.074 159 36.074 c 164.176 36.074 l 164.551 36.074 165.148 36.074 165.301
 36 c 165.523 35.926 165.602 35.398 165.676 35.102 c 167.477 25.727 l 169.727
 15.301 l 169.801 15 170.102 14.699 170.477 14.699 c 185.176 14.699 l 185.398
 14.699 185.625 14.398 185.551 14.102 c f
206.477 3.227 m 206.102 3.227 199.949 3.227 199.949 3.227 c 199.574 3.227
 199.199 3.602 198.977 3.898 c 187.5 20.699 l 187.273 21 187.051 21 186.977
 20.625 c 186.148 16.949 l 186.074 16.648 185.699 16.352 185.398 16.352 
c 178.051 16.352 l 177.676 16.352 177.523 16.648 177.602 16.949 c 180.898
 28.5 l 180.977 28.801 180.977 29.398 180.898 29.699 c 179.324 35.551 l 
179.25 35.852 179.477 36 179.773 36 c 187.051 36 l 187.426 36 187.727 35.926
 187.801 35.551 c 189.375 29.625 l 189.449 29.324 189.676 28.875 189.898
 28.574 c 208.574 3.824 l 208.801 3.523 208.727 3.227 208.426 3.227 c h
206.477 3.227 m f
129.824 7.949 m 123.148 7.949 l 122.773 7.949 122.477 8.102 122.398 8.398
 c 120.227 18.676 l 118.051 28.5 l 117.977 28.801 117.676 28.801 117.301
 28.801 c 112.949 28.801 l 108.602 28.801 109.125 26.102 110.023 21.977 
c 110.023 21.898 112.801 8.398 112.801 8.398 c 112.875 8.102 112.648 7.949
 112.273 7.949 c 105.977 7.949 l 105.602 7.949 105.301 8.102 105.227 8.398
 c 102.676 21.977 l 101.398 29.324 101.398 35.773 109.875 36 c 110.023 36
 123.301 36 123.301 36 c 123.676 36 123.977 35.852 124.051 35.551 c 126.977
 21.898 l 129.824 8.25 l 129.824 8.25 129.977 7.949 129.824 7.949 c h
129.824 7.949 m f
63.676 7.949 m 56.551 7.949 l 56.176 7.949 55.875 8.023 55.801 8.398 c 
54.523 13.949 l 54.449 14.25 54.676 14.551 55.051 14.551 c 61.875 14.551
 l 62.25 14.551 62.551 14.25 62.625 13.875 c 63.824 8.25 l 63.824 8.25 63.977
 7.949 63.676 7.949 c h
63.676 7.949 m f
54.602 16.352 m 54.227 16.352 53.926 16.648 53.852 16.949 c 52.875 21.227
 l 50.699 31.051 l 50.699 31.051 49.574 36.227 49.426 36.602 c 49.426 36.602
 48.449 40.352 46.199 40.199 c 45.148 40.125 43.949 39.898 43.949 39.898
 c 43.273 39.676 43.273 40.352 43.199 40.727 c 41.773 46.801 l 41.699 47.102
 41.926 47.398 42.227 47.477 c 42.227 47.477 45.301 47.926 47.477 47.926
 c 47.852 47.926 l 53.176 47.926 56.023 44.773 57.824 36.227 c 59.926 26.25
 l 61.875 17.023 l 61.949 16.727 61.727 16.352 61.426 16.352 c f
146.625 7.875 m 134.625 7.875 131.773 15.301 130.199 22.574 c 128.625 30.074
 128.773 36 141.148 36 c 141.602 36 l 146.551 36 152.477 36 152.477 36 c
 152.773 36 153.148 35.699 153.227 35.324 c 154.426 30.602 l 154.5 30.301
 154.273 30.148 153.898 30.148 c 142.727 30.148 l 138.676 30.148 137.25 
28.875 137.398 26.102 c 137.398 25.801 137.773 24.977 138.074 24.977 c 155.25
 24.977 l 156 24.977 156 24.523 156 24.523 c 157.875 16.727 157.949 7.875
 146.625 7.875 c 149.773 19.648 m 149.773 20.023 148.574 19.949 148.574 
19.949 c 139.273 19.875 l 138.977 19.875 138.824 19.426 138.824 19.125 c
 138.824 19.125 138.824 18.75 138.898 18.676 c 139.648 16.199 141.75 14.773
 145.199 14.773 c 149.023 14.773 149.852 16.648 149.852 18.824 c f
94.875 28.273 m 94.875 28.273 98.25 20.102 99 15.449 c 100.051 9.148 96.898
 0 84.676 0 c 72.602 0 67.352 8.699 65.324 18.227 c 63.301 27.75 65.926 
36.074 78 36 c 96.375 36 l 96.75 36 97.051 35.699 97.125 35.398 c 98.699
 29.477 l 98.773 29.176 98.551 28.875 98.25 28.875 c 95.25 28.875 l 94.949
 28.875 94.801 28.648 94.801 28.426 c 94.875 28.426 94.875 28.352 94.875
 28.273 c 88.574 23.324 m 87.227 28.051 l 87.148 28.352 86.773 28.574 86.398
 28.574 c 79.273 28.574 l 73.875 28.574 72.523 24.375 73.875 18.148 c 75.227
 11.773 77.773 7.875 83.102 7.426 c 90.375 6.898 91.875 12 90.074 17.926
 c h
88.574 23.324 m f
Q Q
showpage
%%Trailer
end
%%EOF
