%!PS-Adobe-3.0 EPSF-3.0
%%Creator: cairo 1.16.0 (https://cairographics.org)
%%CreationDate: Mon Jan 27 23:01:55 2020
%%Pages: 1
%%DocumentData: Clean7Bit
%%LanguageLevel: 2
%%BoundingBox: 10 9 542 144
%%EndComments
%%BeginProlog
50 dict begin
/q { gsave } bind def
/Q { grestore } bind def
/cm { 6 array astore concat } bind def
/w { setlinewidth } bind def
/J { setlinecap } bind def
/j { setlinejoin } bind def
/M { setmiterlimit } bind def
/d { setdash } bind def
/m { moveto } bind def
/l { lineto } bind def
/c { curveto } bind def
/h { closepath } bind def
/re { exch dup neg 3 1 roll 5 3 roll moveto 0 rlineto
      0 exch rlineto 0 rlineto closepath } bind def
/S { stroke } bind def
/f { fill } bind def
/f* { eofill } bind def
/n { newpath } bind def
/W { clip } bind def
/W* { eoclip } bind def
/BT { } bind def
/ET { } bind def
/BDC { mark 3 1 roll /BDC pdfmark } bind def
/EMC { mark /EMC pdfmark } bind def
/cairo_store_point { /cairo_point_y exch def /cairo_point_x exch def } def
/Tj { show currentpoint cairo_store_point } bind def
/TJ {
  {
    dup
    type /stringtype eq
    { show } { -0.001 mul 0 cairo_font_matrix dtransform rmoveto } ifelse
  } forall
  currentpoint cairo_store_point
} bind def
/cairo_selectfont { cairo_font_matrix aload pop pop pop 0 0 6 array astore
    cairo_font exch selectfont cairo_point_x cairo_point_y moveto } bind def
/Tf { pop /cairo_font exch def /cairo_font_matrix where
      { pop cairo_selectfont } if } bind def
/Td { matrix translate cairo_font_matrix matrix concatmatrix dup
      /cairo_font_matrix exch def dup 4 get exch 5 get cairo_store_point
      /cairo_font where { pop cairo_selectfont } if } bind def
/Tm { 2 copy 8 2 roll 6 array astore /cairo_font_matrix exch def
      cairo_store_point /cairo_font where { pop cairo_selectfont } if } bind def
/g { setgray } bind def
/rg { setrgbcolor } bind def
/d1 { setcachedevice } bind def
/cairo_data_source {
  CairoDataIndex CairoData length lt
    { CairoData CairoDataIndex get /CairoDataIndex CairoDataIndex 1 add def }
    { () } ifelse
} def
/cairo_flush_ascii85_file { cairo_ascii85_file status { cairo_ascii85_file flushfile } if } def
/cairo_image { image cairo_flush_ascii85_file } def
/cairo_imagemask { imagemask cairo_flush_ascii85_file } def
%%EndProlog
%%BeginSetup
%%EndSetup
%%Page: 1 1
%%BeginPageSetup
%%PageBoundingBox: 10 9 542 144
%%EndPageSetup
q 10 9 532 135 rectclip
1 0 0 -1 0 152 cm q
0.454902 0.690196 0.258824 rg
54.047 109.18 m 42.18 107.625 28.559 99.469 20.902 89.336 c 13.586 79.648
 10.203 70.148 10.184 59.227 c 10.168 49.523 13.012 42.328 20.23 33.832 
c 22.145 31.582 l 20.547 36.082 l 19.332 39.516 18.949 42.363 18.941 48.082
 c 18.93 57.656 21.301 65.406 26.723 73.516 c 36.461 88.07 51.789 96.926
 68.672 97.738 c 81.586 98.359 91.121 95.309 99.188 87.969 c 103.457 84.082
 l 101.703 87.227 l 92.34 103.992 75.098 111.938 54.047 109.18 c h
66.41 79.227 m 61.77 78.043 57.176 75.738 52.375 72.188 c 47.027 68.234
 43.98 64.41 40.641 57.457 c 38.453 52.91 38.297 52.031 38.297 44.332 c 
38.297 36.414 38.398 35.902 40.77 31.582 c 42.129 29.109 44.066 26.07 45.078
 24.832 c 46.914 22.582 l 45.344 26.707 l 44.062 30.07 43.828 32.039 44.074
 37.328 c 44.34 43.012 44.738 44.551 47.246 49.625 c 56.152 67.645 78.043
 76.543 94.508 68.84 c 97.129 67.609 100.641 65.242 102.312 63.57 c 105.758
 60.125 105.605 61.285 101.867 67 c 98.902 71.531 93.559 75.715 87.961 77.891
 c 83.566 79.602 70.941 80.383 66.41 79.227 c h
75.422 51.781 m 70.309 49.41 66.148 45.48 63.57 40.582 c 60.926 35.559 
60.781 27.871 63.246 23.195 c 65.375 19.16 66.555 18.383 65.625 21.625 c
 63.824 27.91 66.262 34.969 72.34 41.043 c 77.375 46.078 82.93 48.457 89.652
 48.457 c 94.891 48.457 97.523 47.582 100.477 44.848 c 102.84 42.664 102.527
 43.633 99.586 47.602 c 95.129 53.629 83.68 55.609 75.422 51.781 c h
75.422 51.781 m f
339.172 142.02 m 339.18 141.504 339.855 138.062 340.672 134.371 c 341.488
 130.68 342.156 127.223 342.156 126.684 c 342.156 125.707 l 340.047 125.707
 l 340.438 124.207 l 340.832 122.707 l 342.887 122.707 l 343.957 120.145
 l 345.027 117.578 l 346.637 116.719 l 348.242 115.859 l 352.656 116.828
 l 352.645 117.707 l 352.637 118.188 352.383 118.973 352.082 119.445 c 351.531
 120.309 l 347.898 120.832 l 347.281 122.707 l 351.316 122.707 l 350.859
 123.895 l 350.609 124.547 350.406 125.223 350.406 125.395 c 350.406 125.566
 349.586 125.707 348.582 125.707 c 346.758 125.707 l 346.352 127.02 l 346.125
 127.742 345.449 130.703 344.848 133.602 c 344.242 136.5 343.398 139.789
 342.969 140.914 c 342.191 142.957 l 339.156 142.957 l h
339.172 142.02 m f
246.23 130.434 m 247.016 126.848 247.656 123.688 247.656 123.414 c 247.656
 122.918 l 256.219 122.035 l 257 122.652 l 257.781 123.273 l 259.281 122.668
 l 260.105 122.336 261.531 122.039 262.449 122.012 c 264.121 121.961 l 266.527
 125.633 l 265.664 129.984 l 265.191 132.375 264.633 134.926 264.43 135.648
 c 264.055 136.961 l 260.66 136.961 l 261.332 131.969 l 262 126.98 l 261.016
 126.355 l 260.473 126.016 259.691 125.84 259.281 125.973 c 258.531 126.207
 l 258.305 127.645 l 258.18 128.438 257.734 130.855 257.312 133.023 c 256.551
 136.961 l 252.875 136.961 l 253.227 135.273 l 253.418 134.344 253.773 132.023
 254.02 130.113 c 254.469 126.645 l 251.898 125.66 l 251.336 126.57 l 251.027
 127.07 250.371 129.613 249.879 132.219 c 248.984 136.961 l 244.805 136.961
 l h
246.23 130.434 m f
268.805 136.059 m 267.906 135.16 l 267.91 131.746 l 267.91 128.332 l 269.371
 125.938 l 270.836 123.539 l 273.801 122.652 l 276.77 121.762 l 278.66 122.238
 l 279.699 122.496 281.082 123.242 281.727 123.887 c 282.906 125.066 l 282.906
 129.508 l 281.859 132.012 l 280.812 134.512 l 277.32 136.957 l 269.707 
136.957 l h
268.805 136.059 m f
1 g
276.777 132.645 m 278.316 131.332 l 278.445 129.832 l 278.52 129.008 278.539
 127.934 278.492 127.445 c 278.406 126.559 l 276.934 126.094 l 275.461 125.625
 l 273.996 126.41 l 272.527 127.195 l 272.004 129.586 l 271.477 131.973 
l 272.836 132.965 l 274.59 134.25 274.934 134.219 276.777 132.645 c h
276.777 132.645 m f
0.454902 0.690196 0.258824 rg
284.434 134.93 m 284.445 133.777 285.207 129.289 286.121 124.957 c 287.781
 117.082 l 289.574 116.828 l 291.371 116.578 l 290.961 119.617 l 290.555
 122.66 l 297 121.777 l 299.453 125.52 l 298.953 128.656 l 298.449 131.789
 l 296.84 134.188 l 295.227 136.582 l 289.816 136.805 l 284.406 137.023 
l h
284.434 134.93 m f
1 g
294.176 131.285 m 294.578 130.227 294.906 128.715 294.906 127.926 c 294.906
 126.488 l 291.047 125.52 l 290.391 126.176 l 290.027 126.539 289.504 128.27
 289.223 130.02 c 288.715 133.207 l 293.441 133.207 l h
294.176 131.285 m f
0.454902 0.690196 0.258824 rg
301.875 131.551 m 302.574 126.141 l 301.738 125.863 l 300.906 125.582 l
 300.906 122.707 l 307.758 122.707 l 307.383 124.02 l 307.176 124.742 306.625
 127.359 306.156 129.832 c 305.688 132.309 305.133 134.926 304.93 135.645
 c 304.555 136.957 l 301.176 136.957 l h
301.875 131.551 m f
309.781 119.922 m 310.578 120.414 l 311.469 120.977 l 310.367 126.156 l
 309.758 129.008 309.102 132.602 308.891 134.148 c 308.492 136.961 l 312.008
 136.961 l 313.273 131.148 l 313.969 127.953 314.969 123.398 315.5 121.023
 c 316.461 116.711 l 309.898 116.711 l 309.875 117.648 l 309.852 118.465
 309.73 119.086 309.781 119.922 c h
309.781 119.922 m f
309.074 118.867 m 309.102 117.273 l 308.328 115.961 l 305.586 115.961 l
 304.672 117.062 l 303.734 118.188 l 304.203 119.43 l 304.672 120.648 l 
307.18 120.25 l 308.539 120.012 l h
309.074 118.867 m f
317.219 136.148 m 315.906 135.383 l 315.906 129.41 l 318.039 124.309 l 
320.309 123.133 l 322.582 121.957 l 326.82 121.957 l 330.156 124.293 l 330.156
 130.957 l 320.406 130.957 l 320.406 133.207 l 328.656 133.207 l 328.656
 134.184 l 328.656 134.719 328.25 135.562 327.754 136.059 c 326.855 136.957
 l 322.691 136.938 l 318.531 136.914 l h
317.219 136.148 m f
1 g
325.898 126.758 m 325.496 125.707 l 324.512 125.707 l 323.969 125.707 322.996
 125.914 322.34 126.164 c 321.156 126.621 l 321.156 128.406 l 323.727 128.105
 l 326.301 127.809 l h
325.898 126.758 m f
0.454902 0.690196 0.258824 rg
351.391 129.965 m 352.867 122.898 l 357.043 122.465 l 361.219 122.035 l
 362.188 122.84 l 363.156 123.641 l 363.156 128.707 l 358.703 128.707 l 
359.492 126.652 l 358.215 126.164 l 356.527 125.516 356.555 125.469 355.07
 131.418 c 353.781 136.582 l 351.848 136.809 l 349.918 137.035 l h
351.391 129.965 m f
364.809 136.062 m 363.906 135.16 l 363.906 129.41 l 366.031 124.324 l 367.988
 123.043 l 369.949 121.758 l 374.203 122.258 l 376.539 122.531 378.59 122.891
 378.754 123.059 c 378.918 123.223 378.41 126.332 377.625 129.969 c 376.195
 136.582 l 365.711 136.965 l h
364.809 136.062 m f
1 g
373.531 130.027 m 374.34 126.844 l 373.016 125.52 l 369.273 126.457 l 368.41
 129.07 l 367.547 131.68 l 368.02 132.445 l 368.492 133.207 l 372.723 133.207
 l h
373.531 130.027 m f
0.454902 0.690196 0.258824 rg
380.648 129.926 m 382.117 122.898 l 386.32 122.461 l 390.527 122.027 l 
391.125 122.629 l 391.727 123.23 l 394.66 122.449 l 397.59 121.668 l 399.199
 123.125 l 400.809 124.578 l 400.355 127.879 l 400.105 129.695 399.555 132.48
 399.125 134.07 c 398.348 136.957 l 395.211 136.957 l 395.719 131.805 l 
396.227 126.648 l 393.648 125.656 l 393.113 126.531 l 392.816 127.008 392.355
 129.051 392.086 131.062 c 391.82 133.078 391.41 135.23 391.172 135.844 
c 390.746 136.957 l 387.426 136.957 l 387.984 133.02 l 388.293 130.855 388.57
 128.527 388.602 127.852 c 388.656 126.621 l 387.402 126.137 l 386.148 125.656
 l 385.664 126.445 l 385.395 126.879 384.742 129.422 384.207 132.098 c 383.242
 136.957 l 379.184 136.957 l h
380.648 129.926 m f
403.055 136.059 m 402.156 135.16 l 402.156 132.121 l 402.16 129.082 l 403.469
 126.469 l 404.781 123.855 l 408.531 121.98 l 413.07 121.957 l 416.484 124.348
 l 416.031 130.582 l 411.332 130.957 l 406.629 131.332 l 406.637 132.832
 l 410.77 133.059 l 415.234 133.301 415.289 133.34 414.129 135.508 c 413.352
 136.957 l 403.957 136.957 l h
403.055 136.059 m f
1 g
411.906 126.699 m 411.906 125.609 l 409.848 125.848 l 407.793 126.082 l
 407.57 127.27 l 407.344 128.457 l 409.625 128.125 l 411.906 127.789 l h
411.906 126.699 m f
0.454902 0.690196 0.258824 rg
418.812 130.066 m 419.031 123.082 l 421.164 122.84 l 423.293 122.598 l 
423.039 127.082 l 422.781 131.57 l 423.207 131.305 l 423.441 131.156 424.273
 129.164 425.051 126.875 c 426.465 122.707 l 432.156 122.707 l 432.195 127.77
 l 432.238 132.832 l 436.074 122.707 l 439.656 122.707 l 439.656 123.5 l
 439.656 123.938 438.418 127.141 436.906 130.625 c 434.152 136.957 l 428.406
 136.957 l 428.352 132.27 l 428.301 127.582 l 426.566 132.082 l 424.828 
136.582 l 421.715 136.816 l 418.598 137.047 l h
418.812 130.066 m f
440.832 135.781 m 439.656 134.602 l 439.656 129.508 l 440.906 126.883 l
 442.16 124.258 l 444.758 123.027 l 447.352 121.793 l 450.062 122.234 l 
452.777 122.676 l 453.715 123.961 l 454.656 125.246 l 454.656 130.309 l 
453.812 131.945 l 453.348 132.848 452.277 134.344 451.43 135.27 c 449.895
 136.957 l 442.012 136.957 l h
440.832 135.781 m f
1 g
448.402 132.852 m 449.984 131.742 l 450.477 129.781 l 450.969 127.816 l
 450.098 126.762 l 449.223 125.707 l 446.637 125.707 l 445.453 127.02 l 
444.805 127.742 444.047 129.23 443.777 130.324 c 443.277 132.312 l 444.656
 133.113 l 446.449 134.156 446.547 134.152 448.402 132.852 c h
448.402 132.852 m f
0.454902 0.690196 0.258824 rg
455.68 135.645 m 455.883 134.926 456.605 131.762 457.281 128.621 c 458.512
 122.906 l 462.738 122.473 l 466.969 122.035 l 467.938 122.84 l 468.906 
123.641 l 468.906 124.988 l 468.906 125.73 468.699 126.871 468.449 127.523
 c 467.996 128.707 l 464.582 128.707 l 463.754 125.551 l 462.766 125.879
 l 461.781 126.207 l 461.547 127.645 l 461.418 128.438 460.816 130.855 460.211
 133.02 c 459.113 136.957 l 455.305 136.957 l h
455.68 135.645 m f
468.906 136.082 m 468.906 135.539 469.801 130.961 470.895 125.902 c 472.879
 116.707 l 476.57 116.707 l 476.133 119.145 l 475.895 120.488 475.469 123.047
 475.195 124.836 c 474.691 128.09 l 476.488 127.836 l 478.281 127.582 l 
479.656 124.77 l 481.027 121.957 l 483.906 121.957 l 483.906 125.785 l 482.797
 127.93 l 482.188 129.109 481.258 130.23 480.734 130.422 c 479.781 130.77
 l 480.719 131.766 l 481.656 132.758 l 481.656 136.957 l 479.969 136.953
 l 478.281 136.945 l 476.992 133.879 l 475.707 130.816 l 474.793 131.121
 l 473.883 131.426 l 473.02 134.004 l 472.152 136.586 l 470.531 136.824 
l 468.906 137.062 l h
468.906 136.082 m f
484.039 135.27 m 484.281 133.582 l 487.828 133.082 l 489.203 134.457 l 
488.727 135.707 l 488.246 136.957 l 483.801 136.957 l h
484.039 135.27 m f
0.0705882 0.105882 0.156863 rg
115.562 127.617 m 115.094 127.148 l 116.984 119.492 l 118.027 115.281 119.207
 111.41 119.609 110.895 c 120.34 109.957 l 128.473 109.957 l 130.246 108.184
 l 131.223 107.207 132.688 105.098 133.504 103.496 c 134.98 100.582 l 139.965
 77.676 l 142.707 65.078 145.219 53.773 145.543 52.551 c 146.137 50.332 
l 156.02 50.125 l 165.906 49.914 l 165.906 51.199 l 165.906 51.902 163.359
 64.215 160.25 78.559 c 154.59 104.633 l 152.73 110.109 l 150.867 115.582
 l 148.285 119.477 l 145.699 123.371 l 142.113 125.477 l 138.531 127.582
 l 127.281 127.836 l 116.031 128.086 l h
359.781 99.738 m 348.559 97.531 346.992 96.918 343.027 93.188 c 339.844
 90.191 338.793 88.137 337.676 82.719 c 336.777 78.359 l 337.625 71.844 
l 338.469 65.332 l 340.32 58.301 l 342.172 51.266 l 344.414 46.57 l 346.652
 41.871 l 350.117 38.023 l 353.578 34.172 l 356.738 32.316 l 358.477 31.301
 361.898 29.73 364.34 28.828 c 368.781 27.195 l 379.656 27.141 l 390.531
 27.082 l 394.586 28.496 l 398.645 29.91 l 401.863 33.125 l 405.078 36.344
 l 406.344 40.688 l 407.605 45.035 l 406.707 58.582 l 403.996 69.832 l 381.574
 70.031 l 359.156 70.23 l 358.156 71.062 l 357.156 71.891 l 357.156 73.641
 l 357.156 74.602 357.559 76.273 358.051 77.355 c 358.949 79.32 l 361.238
 80.578 l 363.531 81.832 l 399.906 82.324 l 399.875 83.953 l 399.859 84.852
 399.219 88.578 398.457 92.242 c 397.062 98.898 l 395.031 100.188 l 378.156
 100.109 l 368.875 100.07 360.605 99.902 359.781 99.738 c h
387.156 52.16 m 387.156 49.109 l 386.383 47.668 l 385.609 46.223 l 383.422
 45.09 l 381.23 43.957 l 371.504 43.957 l 369.391 44.758 l 365.785 46.117
 360.906 51.676 360.906 54.422 c 360.906 55.207 l 387.156 55.207 l h
198.156 98.941 m 197.125 98.77 194.594 98.105 192.531 97.473 c 188.781 
96.316 l 181.055 91.129 l 179.07 88.266 l 177.977 86.688 176.383 83.586 
175.527 81.367 c 173.969 77.332 l 173.602 70.582 l 173.23 63.832 l 175.754
 50.332 l 180.246 36.832 l 185.652 27.082 l 191.434 21.277 l 197.211 15.469
 l 201.996 13.238 l 204.629 12.012 208.961 10.453 211.625 9.773 c 216.473
 8.543 l 225.875 8.883 l 235.281 9.227 l 239.586 10.895 l 243.891 12.559
 l 247.461 15.012 l 251.031 17.461 l 253.809 21.117 l 256.59 24.773 l 258.309
 29.305 l 260.031 33.832 l 259.988 41.707 l 259.949 49.582 l 257.891 56.332
 l 256.758 60.047 254.496 66.738 252.867 71.203 c 251.238 75.672 249.906
 79.805 249.906 80.391 c 249.906 81.457 l 254.281 81.457 l 256.688 81.457
 258.84 81.641 259.062 81.863 c 259.469 82.27 l 257.367 90.094 l 256.215
 94.395 255.055 98.262 254.793 98.688 c 254.316 99.457 l 227.172 99.355 
l 212.246 99.301 199.188 99.113 198.156 98.941 c h
231.086 75.645 m 231.91 72.863 233.969 65.691 235.664 59.707 c 238.75 48.832
 l 238.281 35.965 l 236.117 33.129 l 233.953 30.297 l 227.781 27.492 l 221.781
 27.484 l 215.781 27.473 l 208.281 30.973 l 205.383 34.188 l 202.488 37.398
 l 198.059 46.867 l 195.176 60.836 l 195.184 64.211 l 195.188 66.066 195.5
 68.906 195.875 70.527 c 196.555 73.469 l 199.367 77.336 l 202.672 79.023
 l 205.973 80.711 l 229.594 80.711 l 231.086 75.648 l h
283.656 98.941 m 282.625 98.77 280.238 98.133 278.355 97.527 c 274.934 
96.43 l 272.199 93.633 l 269.469 90.832 l 267.031 84.082 l 266.977 71.074
 l 275.656 29.332 l 276.371 28.395 l 277.09 27.457 l 294.066 27.457 l 294.473
 28.117 l 294.883 28.777 l 290.77 49.266 l 286.656 69.758 l 286.656 77.543
 l 287.969 79.164 l 289.281 80.781 l 295.281 82.172 l 301 82.191 l 306.723
 82.211 l 307.496 81.273 l 308.273 80.336 l 313.598 55.586 l 316.523 41.973
 319.246 30.074 319.648 29.148 c 320.375 27.461 l 337.656 27.461 l 337.656
 29.203 l 337.656 30.164 334.418 46.109 330.465 64.637 c 323.273 98.328 
l 321.531 99.438 l 303.531 99.344 l 293.629 99.297 284.688 99.113 283.656
 98.941 c h
409.211 98.426 m 408.816 97.391 l 416.066 63.363 l 423.316 29.332 l 424.129
 28.332 l 424.945 27.332 l 448.238 27.605 l 471.531 27.875 l 474.219 29.074
 l 476.902 30.277 l 478.52 32.328 l 480.133 34.383 l 480.902 37.109 l 481.324
 38.605 481.879 41.098 482.133 42.645 c 482.598 45.457 l 439.84 45.457 l
 438.309 47.332 l 433.359 71.121 l 430.633 84.203 428.406 95.398 428.406
 96.004 c 428.406 96.609 427.875 97.633 427.227 98.281 c 426.047 99.457 
l 409.609 99.457 l h
467.75 98.66 m 467.258 97.863 l 469.258 89.801 l 471.258 81.734 l 466.809
 66.246 l 462.359 50.754 l 462.758 50.355 l 462.977 50.137 467.645 49.957
 473.129 49.957 c 483.102 49.957 l 483.797 51.27 l 484.176 51.992 484.891
 54.543 485.383 56.938 c 486.277 61.293 l 486.934 61.062 l 487.293 60.938
 494.023 51.383 501.891 39.832 c 509.762 28.285 516.762 18.41 517.445 17.895
 c 518.691 16.957 l 541.066 16.957 l 540.676 17.977 l 540.461 18.539 529.535
 33.305 516.398 50.789 c 492.516 82.582 l 490.727 89.707 l 489.742 93.629
 488.637 97.426 488.27 98.145 c 487.602 99.457 l 468.242 99.457 l h
148.223 41.543 m 148.492 39.777 149.289 35.973 149.996 33.082 c 151.281
 27.832 l 161.219 27.625 l 171.156 27.414 l 171.137 28.375 l 171.125 28.902
 170.355 32.707 169.43 36.832 c 167.746 44.332 l 157.738 44.543 l 147.727
 44.754 l h
148.223 41.543 m f
Q Q
showpage
%%Trailer
end
%%EOF
