%!PS-Adobe-3.0 EPSF-3.0
%%Creator: cairo 1.16.0 (https://cairographics.org)
%%CreationDate: Mon Jan 27 23:22:28 2020
%%Pages: 1
%%DocumentData: Clean7Bit
%%LanguageLevel: 3
%%BoundingBox: 0 0 443 271
%%EndComments
%%BeginProlog
50 dict begin
/q { gsave } bind def
/Q { grestore } bind def
/cm { 6 array astore concat } bind def
/w { setlinewidth } bind def
/J { setlinecap } bind def
/j { setlinejoin } bind def
/M { setmiterlimit } bind def
/d { setdash } bind def
/m { moveto } bind def
/l { lineto } bind def
/c { curveto } bind def
/h { closepath } bind def
/re { exch dup neg 3 1 roll 5 3 roll moveto 0 rlineto
      0 exch rlineto 0 rlineto closepath } bind def
/S { stroke } bind def
/f { fill } bind def
/f* { eofill } bind def
/n { newpath } bind def
/W { clip } bind def
/W* { eoclip } bind def
/BT { } bind def
/ET { } bind def
/BDC { mark 3 1 roll /BDC pdfmark } bind def
/EMC { mark /EMC pdfmark } bind def
/cairo_store_point { /cairo_point_y exch def /cairo_point_x exch def } def
/Tj { show currentpoint cairo_store_point } bind def
/TJ {
  {
    dup
    type /stringtype eq
    { show } { -0.001 mul 0 cairo_font_matrix dtransform rmoveto } ifelse
  } forall
  currentpoint cairo_store_point
} bind def
/cairo_selectfont { cairo_font_matrix aload pop pop pop 0 0 6 array astore
    cairo_font exch selectfont cairo_point_x cairo_point_y moveto } bind def
/Tf { pop /cairo_font exch def /cairo_font_matrix where
      { pop cairo_selectfont } if } bind def
/Td { matrix translate cairo_font_matrix matrix concatmatrix dup
      /cairo_font_matrix exch def dup 4 get exch 5 get cairo_store_point
      /cairo_font where { pop cairo_selectfont } if } bind def
/Tm { 2 copy 8 2 roll 6 array astore /cairo_font_matrix exch def
      cairo_store_point /cairo_font where { pop cairo_selectfont } if } bind def
/g { setgray } bind def
/rg { setrgbcolor } bind def
/d1 { setcachedevice } bind def
/cairo_data_source {
  CairoDataIndex CairoData length lt
    { CairoData CairoDataIndex get /CairoDataIndex CairoDataIndex 1 add def }
    { () } ifelse
} def
/cairo_flush_ascii85_file { cairo_ascii85_file status { cairo_ascii85_file flushfile } if } def
/cairo_image { image cairo_flush_ascii85_file } def
/cairo_imagemask { imagemask cairo_flush_ascii85_file } def
%%EndProlog
%%BeginSetup
%%EndSetup
%%Page: 1 1
%%BeginPageSetup
%%PageBoundingBox: 0 0 443 271
%%EndPageSetup
q 0 0 443 271 rectclip
1 0 0 -1 0 271 cm q
0.407843 0.623529 0.388235 rg
218.648 270.93 m 217.188 270.93 215.738 270.547 214.457 269.809 c 201.121
 261.914 l 199.129 260.801 200.102 260.406 200.758 260.18 c 203.414 259.25
 203.953 259.039 206.789 257.43 c 207.086 257.258 207.477 257.32 207.781
 257.5 c 218.027 263.578 l 218.395 263.777 218.922 263.777 219.266 263.578
 c 259.215 240.52 l 259.586 240.309 259.824 239.879 259.824 239.438 c 259.824
 193.34 l 259.824 192.879 259.586 192.469 259.207 192.238 c 219.273 169.199
 l 218.902 168.98 218.414 168.98 218.043 169.199 c 178.117 192.238 l 177.73
 192.457 177.484 192.887 177.484 193.328 c 177.484 239.43 l 177.484 239.867
 177.723 240.289 178.102 240.5 c 189.043 246.82 l 194.984 249.789 198.613
 246.289 198.613 242.77 c 198.613 197.27 l 198.613 196.617 199.125 196.117
 199.773 196.117 c 204.832 196.117 l 205.465 196.117 205.984 196.617 205.984
 197.27 c 205.984 242.789 l 205.984 250.707 201.664 255.258 194.152 255.258
 c 191.844 255.258 190.023 255.258 184.941 252.758 c 174.465 246.719 l 171.875
 245.219 170.273 242.418 170.273 239.43 c 170.273 193.328 l 170.273 190.328
 171.875 187.527 174.465 186.047 c 214.453 162.98 l 216.984 161.547 220.344
 161.547 222.852 162.98 c 262.793 186.059 l 265.375 187.547 266.984 190.34
 266.984 193.34 c 266.984 239.438 l 266.984 242.43 265.375 245.219 262.793
 246.719 c 222.852 269.789 l 221.574 270.527 220.125 270.91 218.645 270.91
 c f
230.988 239.164 m 213.508 239.164 209.844 231.141 209.844 224.41 c 209.844
 223.77 210.359 223.258 211 223.258 c 216.16 223.258 l 216.73 223.258 217.211
 223.676 217.301 224.238 c 218.078 229.496 220.398 232.148 230.969 232.148
 c 239.391 232.148 242.969 230.246 242.969 225.781 c 242.969 223.211 241.949
 221.301 228.867 220.02 c 217.93 218.941 211.168 216.531 211.168 207.781
 c 211.168 199.719 217.969 194.922 229.359 194.922 c 242.148 194.922 248.488
 199.359 249.289 208.902 c 249.32 209.23 249.199 209.551 248.98 209.789 
c 248.758 210.02 248.449 210.16 248.129 210.16 c 242.938 210.16 l 242.398
 210.16 241.93 209.781 241.82 209.262 c 240.57 203.73 237.551 201.961 229.34
 201.961 c 220.148 201.961 219.078 205.16 219.078 207.562 c 219.078 210.469
 220.34 211.32 232.738 212.961 c 245.02 214.59 250.848 216.891 250.848 225.52
 c 250.848 234.219 243.59 239.211 230.93 239.211 c 279.59 190.32 m 280.93
 190.32 l 282.027 190.32 282.238 189.551 282.238 189.102 c 282.238 187.922
 281.43 187.922 280.98 187.922 c 279.598 187.922 l h
277.961 186.539 m 280.93 186.539 l 281.949 186.539 283.949 186.539 283.949
 188.82 c 283.949 190.41 282.93 190.742 282.32 190.941 c 283.508 191.02 
283.59 191.801 283.75 192.902 c 283.828 193.59 283.961 194.781 284.199 195.18
 c 282.367 195.18 l 282.32 194.781 282.039 192.582 282.039 192.461 c 281.918
 191.969 281.75 191.73 281.141 191.73 c 279.629 191.73 l 279.629 195.191
 l 277.961 195.191 l h
274.391 190.84 m 274.391 194.422 277.277 197.32 280.828 197.32 c 284.41
 197.32 287.301 194.359 287.301 190.84 c 287.301 187.25 284.367 184.402 
280.82 184.402 c 277.32 184.402 274.379 187.211 274.379 190.832 c 288.539
 190.859 m 288.539 195.102 285.07 198.562 280.84 198.562 c 276.641 198.562
 273.141 195.141 273.141 190.859 c 273.141 186.5 276.719 183.16 280.84 183.16
 c 284.988 183.16 288.527 186.512 288.527 190.859 c f
0.2 g
94.938 90.551 m 94.938 88.711 93.965 87.02 92.379 86.105 c 50.023 61.734
 l 49.309 61.316 48.508 61.094 47.695 61.066 c 47.258 61.066 l 46.445 61.094
 45.645 61.316 44.918 61.734 c 2.562 86.105 l 0.984 87.023 0 88.715 0 90.555
 c 0.094 156.195 l 0.094 157.105 0.562 157.953 1.363 158.406 c 2.145 158.883
 3.125 158.883 3.902 158.406 c 29.082 143.984 l 30.672 143.039 31.645 141.367
 31.645 139.543 c 31.645 108.879 l 31.645 107.051 32.613 105.359 34.199 
104.449 c 44.918 98.277 l 45.715 97.816 46.59 97.586 47.477 97.586 c 48.355
 97.586 49.25 97.812 50.023 98.273 c 60.738 104.445 l 62.324 105.355 63.297
 107.047 63.297 108.875 c 63.297 139.539 l 63.297 141.359 64.281 143.039
 65.863 143.98 c 91.027 158.391 l 91.816 158.859 92.801 158.859 93.586 158.391
 c 94.363 157.941 94.855 157.09 94.855 156.18 c h
294.805 124.727 m 294.805 125.184 294.562 125.605 294.164 125.832 c 279.617
 134.219 l 279.223 134.445 278.734 134.445 278.34 134.219 c 263.789 125.832
 l 263.391 125.605 263.148 125.184 263.148 124.727 c 263.148 107.93 l 263.148
 107.473 263.391 107.051 263.777 106.82 c 278.32 98.418 l 278.719 98.191
 279.211 98.191 279.609 98.418 c 294.16 106.82 l 294.559 107.051 294.801
 107.473 294.801 107.93 c h
298.734 0.324 m 297.941 -0.117 296.973 -0.105 296.191 0.352 c 295.41 0.812
 294.93 1.652 294.93 2.562 c 294.93 67.562 l 294.93 68.199 294.59 68.789
 294.035 69.109 c 293.484 69.43 292.801 69.43 292.242 69.109 c 281.633 63
 l 280.055 62.086 278.109 62.086 276.523 63 c 234.152 87.453 l 232.57 88.363
 231.594 90.055 231.594 91.871 c 231.594 140.793 l 231.594 142.621 232.57
 144.305 234.152 145.223 c 276.523 169.691 l 278.105 170.602 280.051 170.602
 281.641 169.691 c 324.008 145.211 l 325.59 144.293 326.57 142.613 326.57
 140.781 c 326.57 18.863 l 326.57 17.008 325.559 15.301 323.938 14.395 c
 h
439.828 107.488 m 441.402 106.574 442.371 104.887 442.371 103.066 c 442.371
 91.211 l 442.371 89.387 441.398 87.703 439.824 86.785 c 397.723 62.344 
l 396.133 61.426 394.184 61.426 392.594 62.344 c 350.234 86.793 l 348.645
 87.715 347.672 89.395 347.672 91.227 c 347.672 140.125 l 347.672 141.965
 348.664 143.664 350.254 144.574 c 392.344 168.566 l 393.895 169.453 395.793
 169.465 397.363 168.594 c 422.824 154.445 l 423.621 153.996 424.133 153.145
 424.133 152.227 c 424.133 151.305 423.645 150.445 422.844 149.996 c 380.223
 125.535 l 379.422 125.086 378.934 124.234 378.934 123.324 c 378.934 107.984
 l 378.934 107.07 379.414 106.227 380.211 105.77 c 393.473 98.117 l 394.262
 97.66 395.234 97.66 396.023 98.117 c 409.293 105.77 l 410.082 106.219 410.574
 107.07 410.574 107.98 c 410.574 120.039 l 410.574 120.949 411.062 121.797
 411.852 122.258 c 412.645 122.707 413.621 122.707 414.414 122.25 c h
439.828 107.488 m f*
0.407843 0.623529 0.388235 rg
394.539 105.199 m 394.836 105.023 395.215 105.023 395.52 105.199 c 403.648
 109.891 l 403.953 110.066 404.137 110.391 404.137 110.738 c 404.137 120.129
 l 404.137 120.48 403.953 120.805 403.648 120.98 c 395.52 125.668 l 395.215
 125.848 394.836 125.848 394.539 125.668 c 386.414 120.98 l 386.102 120.805
 385.914 120.48 385.914 120.129 c 385.914 110.738 l 385.914 110.391 386.094
 110.066 386.402 109.891 c h
394.539 105.199 m f*
Q q
116 61 95 109 re W n
160.723 62.59 m 118.594 86.906 l 117.016 87.816 116.047 89.496 116.047 
91.312 c 116.047 139.98 l 116.047 141.797 117.016 143.477 118.594 144.387
 c 160.727 168.723 l 162.301 169.629 164.246 169.629 165.816 168.723 c 207.941
 144.387 l 209.512 143.477 210.484 141.797 210.484 139.98 c 210.484 91.312
 l 210.484 89.496 209.512 87.816 207.934 86.906 c 165.812 62.59 l 165.023
 62.137 164.145 61.91 163.262 61.91 c 162.383 61.91 161.504 62.137 160.715
 62.59 c W n
q
116 61 95 109 re W n
[ 1 0 0 1 0 0 ] concat
  q
q
253.059 82.777 m 134.344 24.586 l 73.473 148.762 l 192.184 206.953 l h
253.059 82.777 m W n
[-38.064845 77.651984 -77.651984 -38.064845 180.417463 80.613286] concat
/CairoFunction
<< /FunctionType 3
   /Domain [ 0 1 ]
   /Functions [
   << /FunctionType 2
      /Domain [ 0 1 ]
      /C0 [ 0.243137 0.52549 0.239216 ]
      /C1 [ 0.243137 0.52549 0.239216 ]
      /N 1
   >>
   << /FunctionType 2
      /Domain [ 0 1 ]
      /C0 [ 0.243137 0.52549 0.239216 ]
      /C1 [ 0.333333 0.576471 0.309804 ]
      /N 1
   >>
   << /FunctionType 2
      /Domain [ 0 1 ]
      /C0 [ 0.333333 0.576471 0.309804 ]
      /C1 [ 0.352941 0.678431 0.270588 ]
      /N 1
   >>
   << /FunctionType 2
      /Domain [ 0 1 ]
      /C0 [ 0.352941 0.678431 0.270588 ]
      /C1 [ 0.352941 0.678431 0.270588 ]
      /N 1
   >>
   ]
   /Bounds [ 0.3 0.5 0.8 ]
   /Encode [ 1 1 4 { pop 0 1 } for ]
>>
def
   << /ShadingType 2
      /ColorSpace /DeviceRGB
      /Coords [ -0.348 0 1.251 0 ]
      /Extend [ true true ]
      /Function CairoFunction
   >>
shfill
Q
  Q
Q
Q q
117 62 93 108 re W n
117.094 143.07 m 117.496 143.594 118 144.047 118.594 144.387 c 154.73 165.262
 l 160.754 168.719 l 161.652 169.242 162.68 169.461 163.688 169.387 c 164.023
 169.359 164.359 169.297 164.688 169.203 c 209.121 87.844 l 208.781 87.473
 208.383 87.164 207.938 86.902 c 180.352 70.973 l 165.77 62.582 l 165.355
 62.344 164.906 62.172 164.449 62.055 c h
117.094 143.07 m W n
q
117 62 93 108 re W n
[ 1 0 0 1 0 0 ] concat
  q
q
65.766 99.988 m 149.59 213.441 l 260.449 131.535 l 176.621 18.086 l h
65.766 99.988 m W n
[106.805509 -78.916587 78.916587 106.805509 156.882492 121.37855] concat
/CairoFunction
<< /FunctionType 3
   /Domain [ 0 1 ]
   /Functions [
   << /FunctionType 2
      /Domain [ 0 1 ]
      /C0 [ 0.243137 0.52549 0.239216 ]
      /C1 [ 0.243137 0.52549 0.239216 ]
      /N 1
   >>
   << /FunctionType 2
      /Domain [ 0 1 ]
      /C0 [ 0.243137 0.52549 0.239216 ]
      /C1 [ 0.380392 0.596078 0.341176 ]
      /N 1
   >>
   << /FunctionType 2
      /Domain [ 0 1 ]
      /C0 [ 0.380392 0.596078 0.341176 ]
      /C1 [ 0.462745 0.67451 0.392157 ]
      /N 1
   >>
   ]
   /Bounds [ 0.57 0.72 ]
   /Encode [ 1 1 3 { pop 0 1 } for ]
>>
def
   << /ShadingType 2
      /ColorSpace /DeviceRGB
      /Coords [ -0.456 0 0.582 0 ]
      /Extend [ true true ]
      /Function CairoFunction
   >>
shfill
Q
  Q
Q
Q q
118 61 93 109 re W n
162.762 61.938 m 162.055 62.008 161.363 62.227 160.727 62.59 c 118.715 
86.836 l 164.016 169.344 l 164.645 169.254 165.266 169.047 165.824 168.723
 c 207.957 144.387 l 209.254 143.633 210.145 142.355 210.414 140.91 c 164.234
 62.02 l 163.895 61.953 163.555 61.918 163.207 61.918 c 163.066 61.918 162.926
 61.926 162.785 61.938 c W n
q
118 61 93 109 re W n
[ 1 0 0 1 0 0 ] concat
  q
q
118.715 61.918 91.684 107.43 re W n
[97.416822 0 0 97.416822 114.55633 115.635789] concat
/CairoFunction
<< /FunctionType 3
   /Domain [ 0 1 ]
   /Functions [
   << /FunctionType 2
      /Domain [ 0 1 ]
      /C0 [ 0.419608 0.74902 0.278431 ]
      /C1 [ 0.419608 0.74902 0.278431 ]
      /N 1
   >>
   << /FunctionType 2
      /Domain [ 0 1 ]
      /C0 [ 0.419608 0.74902 0.278431 ]
      /C1 [ 0.47451 0.705882 0.380392 ]
      /N 1
   >>
   << /FunctionType 2
      /Domain [ 0 1 ]
      /C0 [ 0.47451 0.705882 0.380392 ]
      /C1 [ 0.458824 0.67451 0.392157 ]
      /N 1
   >>
   << /FunctionType 2
      /Domain [ 0 1 ]
      /C0 [ 0.458824 0.67451 0.392157 ]
      /C1 [ 0.396078 0.619608 0.352941 ]
      /N 1
   >>
   << /FunctionType 2
      /Domain [ 0 1 ]
      /C0 [ 0.396078 0.619608 0.352941 ]
      /C1 [ 0.243137 0.52549 0.239216 ]
      /N 1
   >>
   << /FunctionType 2
      /Domain [ 0 1 ]
      /C0 [ 0.243137 0.52549 0.239216 ]
      /C1 [ 0.243137 0.52549 0.239216 ]
      /N 1
   >>
   ]
   /Bounds [ 0.16 0.38 0.47 0.7 0.9 ]
   /Encode [ 1 1 6 { pop 0 1 } for ]
>>
def
   << /ShadingType 2
      /ColorSpace /DeviceRGB
      /Coords [ 0.043 0 0.984 0 ]
      /Extend [ true true ]
      /Function CairoFunction
   >>
shfill
Q
  Q
Q
Q Q
showpage
%%Trailer
end
%%EOF
