%!PS-Adobe-3.0 EPSF-3.0
%%Creator: cairo 1.16.0 (https://cairographics.org)
%%CreationDate: Tue Jan 28 11:46:00 2020
%%Pages: 1
%%DocumentData: Clean7Bit
%%LanguageLevel: 2
%%BoundingBox: 131 60 500 389
%%EndComments
%%BeginProlog
50 dict begin
/q { gsave } bind def
/Q { grestore } bind def
/cm { 6 array astore concat } bind def
/w { setlinewidth } bind def
/J { setlinecap } bind def
/j { setlinejoin } bind def
/M { setmiterlimit } bind def
/d { setdash } bind def
/m { moveto } bind def
/l { lineto } bind def
/c { curveto } bind def
/h { closepath } bind def
/re { exch dup neg 3 1 roll 5 3 roll moveto 0 rlineto
      0 exch rlineto 0 rlineto closepath } bind def
/S { stroke } bind def
/f { fill } bind def
/f* { eofill } bind def
/n { newpath } bind def
/W { clip } bind def
/W* { eoclip } bind def
/BT { } bind def
/ET { } bind def
/BDC { mark 3 1 roll /BDC pdfmark } bind def
/EMC { mark /EMC pdfmark } bind def
/cairo_store_point { /cairo_point_y exch def /cairo_point_x exch def } def
/Tj { show currentpoint cairo_store_point } bind def
/TJ {
  {
    dup
    type /stringtype eq
    { show } { -0.001 mul 0 cairo_font_matrix dtransform rmoveto } ifelse
  } forall
  currentpoint cairo_store_point
} bind def
/cairo_selectfont { cairo_font_matrix aload pop pop pop 0 0 6 array astore
    cairo_font exch selectfont cairo_point_x cairo_point_y moveto } bind def
/Tf { pop /cairo_font exch def /cairo_font_matrix where
      { pop cairo_selectfont } if } bind def
/Td { matrix translate cairo_font_matrix matrix concatmatrix dup
      /cairo_font_matrix exch def dup 4 get exch 5 get cairo_store_point
      /cairo_font where { pop cairo_selectfont } if } bind def
/Tm { 2 copy 8 2 roll 6 array astore /cairo_font_matrix exch def
      cairo_store_point /cairo_font where { pop cairo_selectfont } if } bind def
/g { setgray } bind def
/rg { setrgbcolor } bind def
/d1 { setcachedevice } bind def
/cairo_data_source {
  CairoDataIndex CairoData length lt
    { CairoData CairoDataIndex get /CairoDataIndex CairoDataIndex 1 add def }
    { () } ifelse
} def
/cairo_flush_ascii85_file { cairo_ascii85_file status { cairo_ascii85_file flushfile } if } def
/cairo_image { image cairo_flush_ascii85_file } def
/cairo_imagemask { imagemask cairo_flush_ascii85_file } def
%%EndProlog
%%BeginSetup
%%EndSetup
%%Page: 1 1
%%BeginPageSetup
%%PageBoundingBox: 131 60 500 389
%%EndPageSetup
q 131 60 369 329 rectclip
1 0 0 -1 0 447 cm q
0.380392 0.854902 0.984314 rg
499.727 222.375 m 499.727 198 469.199 174.898 422.398 160.574 c 433.199
 112.875 428.398 74.926 407.25 62.773 c 402.375 59.926 396.676 58.574 390.449
 58.574 c 390.449 75.301 l 393.898 75.301 396.676 75.977 399 77.25 c 409.199
 83.102 413.625 105.375 410.176 134.023 c 409.352 141.074 408 148.5 406.352
 156.074 c 391.648 152.477 375.602 149.699 358.727 147.898 c 348.602 134.023
 338.102 121.426 327.523 110.398 c 351.977 87.676 374.926 75.227 390.523
 75.227 c 390.523 58.5 l 369.898 58.5 342.898 73.199 315.602 98.699 c 288.301
 73.352 261.301 58.801 240.676 58.801 c 240.676 75.523 l 256.199 75.523 
279.227 87.898 303.676 110.477 c 293.176 121.5 282.676 134.023 272.699 147.898
 c 255.75 149.699 239.699 152.477 225 156.148 c 223.273 148.648 222 141.375
 221.102 134.398 c 217.574 105.75 221.926 83.477 232.051 77.551 c 234.301
 76.199 237.227 75.602 240.676 75.602 c 240.676 58.875 l 234.375 58.875 
228.676 60.227 223.727 63.074 c 202.648 75.227 197.926 113.102 208.801 160.648
 c 162.148 175.051 131.773 198.074 131.773 222.375 c 131.773 246.75 162.301
 269.852 209.102 284.176 c 198.301 331.875 203.102 369.824 224.25 381.977
 c 229.125 384.824 234.824 386.176 241.125 386.176 c 261.75 386.176 288.75
 371.477 316.051 345.977 c 343.352 371.324 370.352 385.875 390.977 385.875
 c 397.273 385.875 402.977 384.523 407.926 381.676 c 429 369.523 433.727
 331.648 422.852 284.102 c 469.352 269.773 499.727 246.676 499.727 222.375
 c h
402.074 172.352 m 399.301 182.023 395.852 192 391.949 201.977 c 388.875
 195.977 385.648 189.977 382.125 183.977 c 378.676 177.977 375 172.125 371.324
 166.426 c 381.977 168 392.25 169.949 402.074 172.352 c h
367.727 252.227 m 361.875 262.352 355.875 271.949 349.648 280.875 c 338.477
 281.852 327.148 282.375 315.75 282.375 c 304.426 282.375 293.102 281.852
 282 280.949 c 275.773 272.023 269.699 262.5 263.852 252.449 c 258.148 242.625
 252.977 232.648 248.25 222.602 c 252.898 212.551 258.148 202.5 263.773 
192.676 c 269.625 182.551 275.625 172.949 281.852 164.023 c 293.023 163.051
 304.352 162.523 315.75 162.523 c 327.074 162.523 338.398 163.051 349.5 
163.949 c 355.727 172.875 361.801 182.398 367.648 192.449 c 373.352 202.273
 378.523 212.25 383.25 222.301 c 378.523 232.352 373.352 242.398 367.727
 252.227 c h
391.949 242.477 m 396 252.523 399.449 262.574 402.301 272.324 c 392.477
 274.727 382.125 276.75 371.398 278.324 c 375.074 272.551 378.75 266.625
 382.199 260.551 c 385.648 254.551 388.875 248.477 391.949 242.477 c h
315.898 322.5 m 308.926 315.301 301.949 307.273 295.051 298.5 c 301.801
 298.801 308.699 299.023 315.676 299.023 c 322.727 299.023 329.699 298.875
 336.523 298.5 c 329.773 307.273 322.801 315.301 315.898 322.5 c h
260.102 278.324 m 249.449 276.75 239.176 274.801 229.352 272.398 c 232.125
 262.727 235.574 252.75 239.477 242.773 c 242.551 248.773 245.773 254.773
 249.301 260.773 c 252.824 266.773 256.426 272.625 260.102 278.324 c h
315.523 122.25 m 322.5 129.449 329.477 137.477 336.375 146.25 c 329.625
 145.949 322.727 145.727 315.75 145.727 c 308.699 145.727 301.727 145.875
 294.898 146.25 c 301.648 137.477 308.625 129.449 315.523 122.25 c h
260.023 166.426 m 256.352 172.199 252.676 178.125 249.227 184.199 c 245.773
 190.199 242.551 196.199 239.477 202.199 c 235.426 192.148 231.977 182.102
 229.125 172.352 c 238.949 170.023 249.301 168 260.023 166.426 c h
192.148 260.324 m 165.602 249 148.426 234.148 148.426 222.375 c 148.426
 210.602 165.602 195.676 192.148 184.426 c 198.602 181.648 205.648 179.176
 212.926 176.852 c 217.199 191.551 222.824 206.852 229.801 222.523 c 222.898
 238.125 217.352 253.352 213.148 267.977 c 205.727 265.648 198.676 263.102
 192.148 260.324 c h
232.5 367.5 m 222.301 361.648 217.875 339.375 221.324 310.727 c 222.148
 303.676 223.5 296.25 225.148 288.676 c 239.852 292.273 255.898 295.051 
272.773 296.852 c 282.898 310.727 293.398 323.324 303.977 334.352 c 279.523
 357.074 256.574 369.523 240.977 369.523 c 237.602 369.449 234.75 368.773
 232.5 367.5 c h
410.398 310.352 m 413.926 339 409.574 361.273 399.449 367.199 c 397.199
 368.551 394.273 369.148 390.824 369.148 c 375.301 369.148 352.273 356.773
 327.824 334.199 c 338.324 323.176 348.824 310.648 358.801 296.773 c 375.75
 294.977 391.801 292.199 406.5 288.523 c 408.227 296.102 409.574 303.375
 410.398 310.352 c h
439.273 260.324 m 432.824 263.102 425.773 265.574 418.5 267.898 c 414.227
 253.199 408.602 237.898 401.625 222.227 c 408.523 206.625 414.074 191.398
 418.273 176.773 c 425.699 179.102 432.75 181.648 439.352 184.426 c 465.898
 195.75 483.074 210.602 483.074 222.375 c 483 234.148 465.824 249.074 439.273
 260.324 c h
439.273 260.324 m f
349.949 222.375 m 349.949 241.305 334.605 256.648 315.676 256.648 c 296.746
 256.648 281.398 241.305 281.398 222.375 c 281.398 203.445 296.746 188.102
 315.676 188.102 c 334.605 188.102 349.949 203.445 349.949 222.375 c h
349.949 222.375 m f
Q Q
showpage
%%Trailer
end
%%EOF
