%!PS-Adobe-3.0 EPSF-3.0
%%Creator: cairo 1.16.0 (https://cairographics.org)
%%CreationDate: Tue Jan 28 11:47:25 2020
%%Pages: 1
%%DocumentData: Clean7Bit
%%LanguageLevel: 2
%%BoundingBox: 6 6 303 111
%%EndComments
%%BeginProlog
50 dict begin
/q { gsave } bind def
/Q { grestore } bind def
/cm { 6 array astore concat } bind def
/w { setlinewidth } bind def
/J { setlinecap } bind def
/j { setlinejoin } bind def
/M { setmiterlimit } bind def
/d { setdash } bind def
/m { moveto } bind def
/l { lineto } bind def
/c { curveto } bind def
/h { closepath } bind def
/re { exch dup neg 3 1 roll 5 3 roll moveto 0 rlineto
      0 exch rlineto 0 rlineto closepath } bind def
/S { stroke } bind def
/f { fill } bind def
/f* { eofill } bind def
/n { newpath } bind def
/W { clip } bind def
/W* { eoclip } bind def
/BT { } bind def
/ET { } bind def
/BDC { mark 3 1 roll /BDC pdfmark } bind def
/EMC { mark /EMC pdfmark } bind def
/cairo_store_point { /cairo_point_y exch def /cairo_point_x exch def } def
/Tj { show currentpoint cairo_store_point } bind def
/TJ {
  {
    dup
    type /stringtype eq
    { show } { -0.001 mul 0 cairo_font_matrix dtransform rmoveto } ifelse
  } forall
  currentpoint cairo_store_point
} bind def
/cairo_selectfont { cairo_font_matrix aload pop pop pop 0 0 6 array astore
    cairo_font exch selectfont cairo_point_x cairo_point_y moveto } bind def
/Tf { pop /cairo_font exch def /cairo_font_matrix where
      { pop cairo_selectfont } if } bind def
/Td { matrix translate cairo_font_matrix matrix concatmatrix dup
      /cairo_font_matrix exch def dup 4 get exch 5 get cairo_store_point
      /cairo_font where { pop cairo_selectfont } if } bind def
/Tm { 2 copy 8 2 roll 6 array astore /cairo_font_matrix exch def
      cairo_store_point /cairo_font where { pop cairo_selectfont } if } bind def
/g { setgray } bind def
/rg { setrgbcolor } bind def
/d1 { setcachedevice } bind def
/cairo_data_source {
  CairoDataIndex CairoData length lt
    { CairoData CairoDataIndex get /CairoDataIndex CairoDataIndex 1 add def }
    { () } ifelse
} def
/cairo_flush_ascii85_file { cairo_ascii85_file status { cairo_ascii85_file flushfile } if } def
/cairo_image { image cairo_flush_ascii85_file } def
/cairo_imagemask { imagemask cairo_flush_ascii85_file } def
%%EndProlog
%%BeginSetup
%%EndSetup
%%Page: 1 1
%%BeginPageSetup
%%PageBoundingBox: 6 6 303 111
%%EndPageSetup
q 6 6 297 105 rectclip
1 0 0 -1 0 117 cm q
0.8 0 0 rg
264.449 97.125 m 264.449 110.699 l 288.977 110.699 l 294 110.699 302.625
 107.023 302.926 96.75 c 302.926 91.5 l 302.926 82.727 295.727 77.551 288.977
 77.551 c 276.75 77.551 l 276.75 71.25 l 300.977 71.25 l 300.977 57.602 
l 277.727 57.602 l 271.727 57.602 263.699 62.551 263.699 71.773 c 263.699
 76.5 l 263.699 85.727 271.648 90.449 277.727 90.449 c 294.602 90.523 273.676
 90.449 289.273 90.449 c 289.273 97.051 l 133.051 93.824 m 133.051 93.824
 146.176 92.699 146.176 75.75 c 146.176 58.801 130.273 57.227 130.273 57.227
 c 101.625 57.227 l 101.625 110.699 l 116.023 110.699 l 116.023 97.801 l
 128.477 110.699 l 149.773 110.699 l h
127.5 82.875 m 116.023 82.875 l 116.023 70.648 l 127.574 70.648 l 127.574
 70.648 130.801 71.852 130.801 76.727 c 130.801 81.602 127.5 82.875 127.5
 82.875 c h
181.727 57.602 m 167.102 57.602 l 156.676 57.602 153.148 67.051 153.148
 71.551 c 153.148 110.699 l 167.773 110.699 l 167.773 101.324 l 181.5 101.324
 l 181.5 110.699 l 195.676 110.699 l 195.676 71.551 l 195.676 60.148 185.324
 57.602 181.727 57.602 c h
181.5 86.176 m 167.699 86.176 l 167.699 73.199 l 167.699 73.199 167.699
 70.273 172.273 70.273 c 177.301 70.273 l 181.352 70.273 181.426 73.199 
181.426 73.199 c 181.426 86.176 l h
181.5 86.176 m f*
202.352 57.602 15.223 53.098 re f*
238.949 96.977 m 238.949 57.602 l 223.801 57.602 l 223.801 110.699 l 259.426
 110.699 l 259.426 96.977 l h
238.949 96.977 m f*
11.25 110.699 m 70.5 110.699 l 70.5 110.699 59.176 59.023 96.676 38.102
 c 104.852 34.125 130.875 19.273 173.477 50.773 c 174.824 49.648 176.102
 48.75 176.102 48.75 c 176.102 48.75 137.102 9.824 93.676 14.176 c 71.852
 16.125 45 36 29.25 62.25 c 13.5 88.5 11.25 110.699 11.25 110.699 c h
11.25 110.699 m f*
11.25 110.699 m 70.5 110.699 l 70.5 110.699 59.176 59.023 96.676 38.102
 c 104.852 34.125 130.875 19.273 173.477 50.773 c 174.824 49.648 176.102
 48.75 176.102 48.75 c 176.102 48.75 137.102 9.824 93.676 14.176 c 71.852
 16.125 45 36 29.25 62.25 c 13.5 88.5 11.25 110.699 11.25 110.699 c h
11.25 110.699 m f*
11.25 110.699 m 70.5 110.699 l 70.5 110.699 59.176 59.023 96.676 38.102
 c 104.852 34.125 130.875 19.273 173.477 50.773 c 174.824 49.648 176.102
 48.75 176.102 48.75 c 176.102 48.75 137.102 9.824 93.676 14.176 c 71.773
 16.125 44.926 36 29.176 62.25 c 13.426 88.5 11.25 110.699 11.25 110.699
 c h
134.699 18.375 m 135 13.352 l 134.324 12.977 132.449 12.074 127.727 10.727
 c 127.426 15.676 l 129.898 16.5 132.301 17.398 134.699 18.375 c h
134.699 18.375 m f*
127.574 34.273 m 127.273 39 l 129.75 39.074 132.227 39.375 134.699 39.898
 c 135 35.25 l 132.449 34.727 129.977 34.426 127.574 34.273 c h
99.824 10.875 m 100.574 10.875 l 99.074 6.301 l 96.75 6.301 94.352 6.449
 91.875 6.75 c 93.301 11.176 l 95.477 10.949 97.648 10.875 99.824 10.875
 c h
103.426 38.477 m 105.148 43.648 l 107.324 42.602 109.5 41.699 111.676 41.023
 c 110.023 36.074 l 107.477 36.824 105.301 37.648 103.426 38.477 c h
69.375 18.75 m 66 13.574 l 64.125 14.551 62.176 15.602 60.148 16.801 c 
63.602 22.051 l 65.551 20.852 67.426 19.727 69.375 18.75 c h
84.75 52.5 m 88.352 57.898 l 89.625 56.023 91.125 54.301 92.773 52.574 
c 89.398 47.477 l 87.676 49.051 86.102 50.773 84.75 52.5 c h
73.875 76.648 m 79.949 81.449 l 80.25 78.523 80.773 75.602 81.523 72.676
 c 76.125 68.398 l 75.148 71.176 74.477 73.949 73.875 76.648 c h
41.023 41.023 m 35.699 36.375 l 33.75 38.25 31.875 40.125 30.148 42 c 35.926
 46.949 l 37.5 44.926 39.227 42.898 41.023 41.023 c h
18.375 74.551 m 9.75 71.398 l 8.324 74.625 6.75 78.375 6 80.398 c 14.625
 83.551 l 15.602 81 17.176 77.324 18.375 74.551 c h
72.75 95.699 m 72.898 99.676 73.273 102.898 73.648 105.148 c 82.648 108.375
 l 81.977 105.449 81.301 102.148 80.852 98.625 c h
72.75 95.699 m f*
Q Q
showpage
%%Trailer
end
%%EOF
