%!PS-Adobe-3.0 EPSF-3.0
%%Creator: cairo 1.16.0 (https://cairographics.org)
%%CreationDate: Mon Jan 27 22:55:42 2020
%%Pages: 1
%%DocumentData: Clean7Bit
%%LanguageLevel: 2
%%BoundingBox: 160 136 472 702
%%EndComments
%%BeginProlog
50 dict begin
/q { gsave } bind def
/Q { grestore } bind def
/cm { 6 array astore concat } bind def
/w { setlinewidth } bind def
/J { setlinecap } bind def
/j { setlinejoin } bind def
/M { setmiterlimit } bind def
/d { setdash } bind def
/m { moveto } bind def
/l { lineto } bind def
/c { curveto } bind def
/h { closepath } bind def
/re { exch dup neg 3 1 roll 5 3 roll moveto 0 rlineto
      0 exch rlineto 0 rlineto closepath } bind def
/S { stroke } bind def
/f { fill } bind def
/f* { eofill } bind def
/n { newpath } bind def
/W { clip } bind def
/W* { eoclip } bind def
/BT { } bind def
/ET { } bind def
/BDC { mark 3 1 roll /BDC pdfmark } bind def
/EMC { mark /EMC pdfmark } bind def
/cairo_store_point { /cairo_point_y exch def /cairo_point_x exch def } def
/Tj { show currentpoint cairo_store_point } bind def
/TJ {
  {
    dup
    type /stringtype eq
    { show } { -0.001 mul 0 cairo_font_matrix dtransform rmoveto } ifelse
  } forall
  currentpoint cairo_store_point
} bind def
/cairo_selectfont { cairo_font_matrix aload pop pop pop 0 0 6 array astore
    cairo_font exch selectfont cairo_point_x cairo_point_y moveto } bind def
/Tf { pop /cairo_font exch def /cairo_font_matrix where
      { pop cairo_selectfont } if } bind def
/Td { matrix translate cairo_font_matrix matrix concatmatrix dup
      /cairo_font_matrix exch def dup 4 get exch 5 get cairo_store_point
      /cairo_font where { pop cairo_selectfont } if } bind def
/Tm { 2 copy 8 2 roll 6 array astore /cairo_font_matrix exch def
      cairo_store_point /cairo_font where { pop cairo_selectfont } if } bind def
/g { setgray } bind def
/rg { setrgbcolor } bind def
/d1 { setcachedevice } bind def
/cairo_data_source {
  CairoDataIndex CairoData length lt
    { CairoData CairoDataIndex get /CairoDataIndex CairoDataIndex 1 add def }
    { () } ifelse
} def
/cairo_flush_ascii85_file { cairo_ascii85_file status { cairo_ascii85_file flushfile } if } def
/cairo_image { image cairo_flush_ascii85_file } def
/cairo_imagemask { imagemask cairo_flush_ascii85_file } def
%%EndProlog
%%BeginSetup
%%EndSetup
%%Page: 1 1
%%BeginPageSetup
%%PageBoundingBox: 160 136 472 702
%%EndPageSetup
q 160 136 312 566 rectclip
1 0 0 -1 0 842 cm q
0 0 0.6 rg
206.93 141.734 m 425.195 141.734 l 450.324 141.734 470.551 161.961 470.551
 187.086 c 470.551 659.055 l 470.551 684.18 450.324 704.41 425.195 704.41
 c 206.93 704.41 l 181.805 704.41 161.574 684.18 161.574 659.055 c 161.574
 187.086 l 161.574 161.961 181.805 141.734 206.93 141.734 c h
206.93 141.734 m f*
0 g
2.159997 w
1 J
1 j
[] 0.0 d
3 M q 1 0 0 1 0 0 cm
206.93 141.734 m 425.195 141.734 l 450.324 141.734 470.551 161.961 470.551
 187.086 c 470.551 659.055 l 470.551 684.18 450.324 704.41 425.195 704.41
 c 206.93 704.41 l 181.805 704.41 161.574 684.18 161.574 659.055 c 161.574
 187.086 l 161.574 161.961 181.805 141.734 206.93 141.734 c h
206.93 141.734 m S Q
0.980392 g
203.148 180.945 m 428.977 180.945 l 433.688 180.945 437.48 184.738 437.48
 189.449 c 437.48 626.457 l 437.48 631.168 433.688 634.961 428.977 634.961
 c 203.148 634.961 l 198.438 634.961 194.645 631.168 194.645 626.457 c 194.645
 189.449 l 194.645 184.738 198.438 180.945 203.148 180.945 c h
203.148 180.945 m f*
0 g
q 1 0 0 1 0 0 cm
203.148 180.945 m 428.977 180.945 l 433.688 180.945 437.48 184.738 437.48
 189.449 c 437.48 626.457 l 437.48 631.168 433.688 634.961 428.977 634.961
 c 203.148 634.961 l 198.438 634.961 194.645 631.168 194.645 626.457 c 194.645
 189.449 l 194.645 184.738 198.438 180.945 203.148 180.945 c h
203.148 180.945 m S Q
0.980392 g
285.59 157.793 m 346.535 157.793 l 348.762 157.793 350.551 159.586 350.551
 161.809 c 350.551 164.035 348.762 165.828 346.535 165.828 c 285.59 165.828
 l 283.367 165.828 281.574 164.035 281.574 161.809 c 281.574 159.586 283.367
 157.793 285.59 157.793 c h
285.59 157.793 m f*
0 g
q 1 0 0 1 0 0 cm
285.59 157.793 m 346.535 157.793 l 348.762 157.793 350.551 159.586 350.551
 161.809 c 350.551 164.035 348.762 165.828 346.535 165.828 c 285.59 165.828
 l 283.367 165.828 281.574 164.035 281.574 161.809 c 281.574 159.586 283.367
 157.793 285.59 157.793 c h
285.59 157.793 m S Q
1 g
331.652 667.559 m 331.652 676.168 324.672 683.148 316.062 683.148 c 311.926
 683.148 307.961 681.508 305.039 678.582 c 302.113 675.66 300.473 671.691
 300.473 667.559 c 300.473 658.949 307.453 651.969 316.062 651.969 c 324.672
 651.969 331.652 658.949 331.652 667.559 c h
331.652 667.559 m f*
0 g
0.719999 w
q 1 0 0 1 0 0 cm
331.652 667.559 m 331.652 676.168 324.672 683.148 316.062 683.148 c 311.926
 683.148 307.961 681.508 305.039 678.582 c 302.113 675.66 300.473 671.691
 300.473 667.559 c 300.473 658.949 307.453 651.969 316.062 651.969 c 324.672
 651.969 331.652 658.949 331.652 667.559 c h
331.652 667.559 m S Q
Q Q
showpage
%%Trailer
end
%%EOF
